,0100000,100000,PROGRAM PENDIDIKAN  -UMUM,1,Expenses,emolument,Gaji dan Upah
,0101000,101000,ASASI  -UMUM,1,Expenses,emolument,Gaji dan Upah
,0101001,101001,ASASI  -Asasi Pengurusan UUM,1,Expenses,emolument,Gaji dan Upah
,0102000,102000,SARJANA MUDA  -UMUM,1,Expenses,emolument,Gaji dan Upah
,0102001,102001,SARJANA MUDA  - Sarjana Muda Ekonomi dengan Kepujian,1,Expenses,emolument,Gaji dan Upah
,0102002,102002,SARJANA MUDA  - Sarjana Muda Pengurusan Hal Ehwal Antarabangsa dengan Kepujian,1,Expenses,emolument,Gaji dan Upah
,0102003,102003,SARJANA MUDA  - Sarjana Muda Pengurusan Kerja Sosial dengan Kepujian,1,Expenses,emolument,Gaji dan Upah
,0102004,102004,SARJANA MUDA  - Sarjana Muda Perbankan dengan Kepujian,1,Expenses,emolument,Gaji dan Upah
,0102005,102005,SARJANA MUDA  - Sarjana Muda Perakaunan (Sistem Maklumat) dengan Kepujian,1,Expenses,emolument,Gaji dan Upah
,0102006,102006,SARJANA MUDA  - Sarjana Muda Komunikasi dengan Kepujian,1,Expenses,emolument,Gaji dan Upah
,0102007,102007,SARJANA MUDA  - Sarjana Muda Kewangan dengan Kepujian,1,Expenses,emolument,Gaji dan Upah
,0102008,102008,SARJANA MUDA  - Sarjana Muda Pengurusan Teknologi dengan Kepujian,1,Expenses,emolument,Gaji dan Upah
,0102009,102009,SARJANA MUDA  - Sarjana Muda Sains Pemutusan dengan Kepujian,1,Expenses,emolument,Gaji dan Upah
,0102010,102010,SARJANA MUDA  - Sarjana Muda Sains  dengan Kepujian (Sains Pemutusan),,,,
,0102011,102011,SARJANA MUDA  - Sarjana Muda Pengurusan Pembangunan dengan Kepujian,1,Expenses,emolument,Elaun tetap
,0102012,102012,SARJANA MUDA  - Sarjana Muda Multimedia dengan Kepujian,1,Expenses,emolument,Elaun tetap
,0102013,102013,SARJANA MUDA  - Sarjana Muda Sains dengan Kepujian (Multimedia),1,Expenses,emolument,Elaun tetap
,0102014,102014,SARJANA MUDA  - Sarjana Muda Sains Ekonomi dengan Kepujian,1,Expenses,emolument,Elaun tetap
,0102015,102015,SARJANA MUDA  - Sarjana Muda Pengurusan Awam dengan Kepujian,1,Expenses,emolument,Elaun tetap
,0102016,102016,SARJANA MUDA  - Sarjana Muda Statistik Industri dengan Kepujian,1,Expenses,emolument,Elaun tetap
,0102017,102017,SARJANA MUDA  - Sarjana Muda Sains dengan Kepujian (Statistik Industri),1,Expenses,emolument,Elaun tetap
,0102018,102018,SARJANA MUDA  - Sarjana Muda Pemasaran dengan Kepujian,1,Expenses,emolument,Elaun tetap
,0102019,102019,SARJANA MUDA  - Sarjana Muda Keusahawanan dengan Kepujian,1,Expenses,emolument,Elaun tetap
,0102020,102020,SARJANA MUDA  - Sarjana Muda Pengurusan Risiko dan Insurans dengan Kepujian,1,Expenses,emolument,Elaun tetap
,0102021,102021,SARJANA MUDA  - Sarjana Muda Pentadbiran Perniagaan (Logistik & Pengangkutan) dengan Kepujian,1,Expenses,emolument,Elaun tetap
,0102022,102022,SARJANA MUDA  - Sarjana Muda Pengurusan Hospitaliti dengan Kepujian,1,Expenses,emolument,Elaun tetap
,0102023,102023,SARJANA MUDA  - Sarjana Muda Pentadbiran Muamalat dengan Kepujian,1,Expenses,emolument,Elaun tetap
,0102024,102024,SARJANA MUDA  - Sarjana Muda Kewangan dan Perbankan Islam dengan Kepujian,1,Expenses,emolument,Elaun tetap
,0102025,102025,SARJANA MUDA  - Sarjana Muda Matematik Perniagaan dengan Kepujian,1,Expenses,emolument,Elaun tetap
,0102026,102026,SARJANA MUDA  - Sarjana Muda Sains dengan Kepujian (Matematik Perniagaan),1,Expenses,emolument,Elaun tetap
,0102027,102027,SARJANA MUDA  - Pentadbiran Awam,1,Expenses,emolument,Elaun tetap
,0102028,102028,SARJANA MUDA  - Sarjana Muda Pengurusan Perniagaan dgn Kepujian,1,Expenses,emolument,Elaun tetap
,0102029,102029,SARJANA MUDA  - Sarjana Muda Pentadbiran Perniagaan dengan Kepujian,1,Expenses,emolument,Elaun tetap
,0102030,102030,SARJANA MUDA  - Sarjana Muda Perakaunan dengan Kepujian,1,Expenses,emolument,Elaun tetap
,0102031,102031,SARJANA MUDA  - Sarjana Muda Teknologi Maklumat dengan Kepujian,1,Expenses,emolument,Elaun tetap
,0102032,102032,SARJANA MUDA  - Sarjana Muda Pengurusan Acara dengan Kepujian,1,Expenses,emolument,Elaun tetap
,0102033,102033,SARJANA MUDA  - Sarjana Muda Sains dengan Kepujian (Teknologi Maklumat),1,Expenses,emolument,Elaun tetap
,0102034,102034,SARJANA MUDA  - Sarjana Muda Pengurusan Pelancongan dengan Kepujian,1,Expenses,emolument,Elaun tetap
,0102035,102035,SARJANA MUDA  - Sarjana Muda Pengurusan Sumber Manusia dengan Kepujian,1,Expenses,emolument,Elaun tetap
,0102036,102036,SARJANA MUDA  - Sarjana Muda Pengurusan Perniagaan Antarabangsa dengan Kepujian,1,Expenses,emolument,Elaun tetap
,0102037,102037,SARJANA MUDA  - Pengurusan Dgn Pendidikan,1,Expenses,emolument,Elaun tetap
,0102038,102038,SARJANA MUDA  - Sarjana Muda Pendidikan dengan Kepujian (Perakaunan),,,,
,0102039,102039,SARJANA MUDA  - Sarjana Muda Pendidikan dengan Kepujian (Perakaunan),,,,
,0102040,102040,SARJANA MUDA  - Sarjana Muda Pendidikan dengan Kepujian (Teknologi Maklumat),1,Expenses,emolument,Elaun tetap
,0102041,102041,SARJANA MUDA  - Sarjana Muda Pendidikan dengan Kepujian (Teknologi Maklumat),1,Expenses,emolument,Elaun tetap
,0102042,102042,SARJANA MUDA  - Sarjana Muda Pendidikan dengan Kepujian (Pengurusan Perniagaan),1,Expenses,emolument,Elaun tetap
,0102043,102043,SARJANA MUDA  - Sarjana Muda Pendidikan dengan Kepujian (Pengurusan Perniagaan),1,Expenses,emolument,Elaun tetap
,0102044,102044,SARJANA MUDA  - Sarjana Muda Pendidikan dengan Kepujian (TESL),1,Expenses,emolument,Elaun tetap
,0102045,102045,SARJANA MUDA  - Sarjana Muda Pendidikan dengan Kepujian (Bimbingan dan Kaunseling),1,Expenses,emolument,Elaun tetap
,0102046,102046,SARJANA MUDA  - Pendidikan dengan Kepujian (Teknologi Maklumat),1,Expenses,emolument,Elaun tetap
,0102047,102047,SARJANA MUDA  - Pendidikan dengan Kepujian (Multimedia Interaktif),1,Expenses,emolument,Elaun tetap
,0102048,102048,SARJANA MUDA  - Pendidikan dengan Kepujian (TEYL),1,Expenses,emolument,Elaun tetap
,0102049,102049,SARJANA MUDA  - Pendidikan dengan Kepujian (Pendidikan Moral),1,Expenses,emolument,Elaun tetap
,0102050,102050,SARJANA MUDA  - Pendidikan dengan Kepujian (Kemahiran Hidup Bersepadu),1,Expenses,emolument,Elaun tetap
,0102051,102051,SARJANA MUDA  - Pendidikan dengan Kepujian (Bimbingan & Kaunseling),1,Expenses,emolument,Elaun tetap
,0102052,102052,SARJANA MUDA  - Sarjana Muda Pendidikan dengan Kepujian (Pendidikan Moral),1,Expenses,emolument,Elaun tetap
,0102053,102053,SARJANA MUDA  - Sarjana Muda Pendidikan dengan Kepujian (Pendidikan Moral),1,Expenses,emolument,Elaun tetap
,0102054,102054,SARJANA MUDA  - Pendidikan dengan Kepujian (Pengurusan Pendidikan),1,Expenses,emolument,Elaun tetap
,0102055,102055,SARJANA MUDA  - Sarjana Muda Pendidikan dengan Kepujian (Sekolah Rendah),1,Expenses,emolument,Elaun tetap
,0102056,102056,SARJANA MUDA  - Sarjana Muda Teknologi Media dengan Kepujian,1,Expenses,emolument,Elaun tetap
,0102057,102057,SARJANA MUDA  - Sarjana Muda Pengurusan Industri Kreatif dengan Kepujian,1,Expenses,emolument,Elaun tetap
,0102058,102058,SARJANA MUDA  - Sarjana Muda Undang-Undang dengan Kepujian,1,Expenses,emolument,Elaun tetap
,0102059,102059,"SARJANA MUDA  - Sarjana Muda Falsafah, Undang -Undang dan Perniagaan dengan Kepujian",1,Expenses,emolument,Elaun tetap
,0102060,102060,SARJANA MUDA  - Sarjana Muda Kaunseling dengan Kepujian,1,Expenses,emolument,Elaun tetap
,0102061,102061,SARJANA MUDA  - Sarjana Muda Sains Pengurusan Perniagaantani dengan Kepujian,1,Expenses,emolument,Elaun tetap
,0102062,102062,SARJANA MUDA  - Sarjana Muda Pengurusan Operasi dengan Kepujian,1,Expenses,emolument,Elaun tetap
,0102063,102063,SARJANA MUDA  - Sarjana Muda Pendidikan dengan Kepujian (Bimbingan dan Kaunseling),1,Expenses,emolument,Elaun tetap
,0102064,102064,SARJANA MUDA  - Diploma Pendidikan,1,Expenses,emolument,Elaun tetap
,0102065,102065,SARJANA MUDA  - Diploma Pendidikan (Bimbingan Dan Kaunseling),1,Expenses,emolument,Elaun tetap
,0102066,102066,SARJANA MUDA  - Diploma Pendidikan (Pengurusan Perniagaan),1,Expenses,emolument,Elaun tetap
,0102067,102067,SARJANA MUDA  - Diploma Pendidikan (Pendidikan Moral),1,Expenses,emolument,Elaun tetap
,0102068,102068,SARJANA MUDA  - Diploma Pendidikan (Perdagangan / Keusahawanan),1,Expenses,emolument,Elaun tetap
,0102069,102069,SARJANA MUDA  - Diploma Pendidikan (Sivik & Kewarganegaraan),,,,
,0102070,102070,SARJANA MUDA  - Diploma Pendidikan,,,,
,0102071,102071,SARJANA MUDA  - Diploma Pendidikan,1,Expenses,emolument,Sumbangan Berkanun
,0102072,102072,SARJANA MUDA Perakaunan dengan Kepujian,1,Expenses,emolument,Sumbangan Berkanun
,0103000,103000,SARJANA  -UMUM,1,Expenses,emolument,Sumbangan Berkanun
,0103001,103001,SARJANA  - Sarjana Pentadbiran Perniagaan (Kewangan),1,Expenses,emolument,Sumbangan Berkanun
,0103002,103002,SARJANA  - Sarjana Sains (Pengurusan),1,Expenses,emolument,Sumbangan Berkanun
,0103003,103003,SARJANA  - Sarjana Sains (Pengurusan Pendidikan),,,,
,0103004,103004,SARJANA  - Sarjana Pentadbiran Perniagaan ,1,Expenses,emolument,Sumbangan Berkanun
,0103005,103005,SARJANA  - Sarjana Pentadbiran Perniagaan pengkhususan dalam Perakaunan,1,Expenses,emolument,Sumbangan Berkanun
,0103006,103006,SARJANA  - Sarjana Pentadbiran Perniagaan pengkhususan dalam Kewangan,1,Expenses,emolument,Sumbangan Berkanun
,0103007,103007,SARJANA  - Sarjana Pentadbiran Perniagaan pengkhususan Pengurusan Rantaian Bekalan,1,Expenses,emolument,Sumbangan Berkanun
,0103008,103008,SARJANA  - Sarjana Pentadbiran Perniagaan pengkhususan dalam Pengurusan Teknologi,,,,
,0103009,103009,SARJANA  - Sarjana Pentadbiran Perniagaan pengkhususan dalam Pengurusan Projek,1,Expenses,emolument,Sumbangan Berkanun
,0103010,103010,SARJANA  - Sarjana Pentadbiran Perniagaan pengkhususan dalam Pemasaran,1,Expenses,emolument,Sumbangan Berkanun
,0103011,103011,SARJANA  - Sarjana Pentadbiran Perniagaan pengkhususan dalam Perniagaan Tani,1,Expenses,emolument,Sumbangan Berkanun
,0103012,103012,SARJANA  - Sarjana Pentadbiran Perniagaan pengkhususan dalam Pembangunan Mapan,1,Expenses,emolument,Sumbangan Berkanun
,0103013,103013,SARJANA  - Sarjana Pentadbiran Perniagaan pengkhususan dalam Pengurusan Muamalat,,,,
,0103014,103014,SARJANA  - Sarjana Sains (Pengurusan Keselamatan dan Kesihatan Pekerjaan),1,Expenses,emolument,Sumbangan Berkanun
,0103015,103015,SARJANA  - Sarjana Sains (Pengurusan Keselamatan dan Kesihatan Pekerjaan),1,Expenses,emolument,Sumbangan Berkanun
,0103016,103016,SARJANA  - Sarjana Sains (Pengurusan Keselamatan dan Kesihatan Pekerjaan),1,Expenses,emolument,Sumbangan Berkanun
,0103017,103017,SARJANA  - Sarjana Pentadbiran Perniagaan pengkhususan Pengurusan Penjagaan Kesihatan,1,Expenses,emolument,Sumbangan Berkanun
,0103018,103018,SARJANA  - Sarjana Pentadbiran Perniagaan pengkhususan dlm. Pengurusan Sumber Manusia,,,,
,0103019,103019,SARJANA  - Sarjana Sains (Sains Pemutusan),,,,
,0103020,103020,SARJANA  - Sarjana Sains (Perniagaan Antarabangsa),1,Expenses,emolument,Elaun Lebih Masa
,0103021,103021,SARJANA  - Sarjana Pentadbiran Perniagaan pengkhususan dalam Perniagaan Antarabangsa,1,Expenses,emolument,Elaun Lebih Masa
,0103022,103022,SARJANA  - Sarjana Pentadbiran Perniagaan pengkhususan dalam Pengurusan Logistik,1,Expenses,emolument,Elaun Lebih Masa
,0103023,103023,SARJANA  - Sarjana Pentadbiran Perniagaan pengkhususan dlm Pengurusan Risiko & Insurans,,,,
,0103024,103024,SARJANA  - Sarjana Pentadbiran Perniagaan p'khususan dlm. Peng. Pelancongan & Hospitaliti,1,Expenses,emolument,Elaun Lebih Masa
,0103025,103025,SARJANA  - Sarjana Sains (Sains Koreksional),1,Expenses,emolument,Elaun Lebih Masa
,0103026,103026,SARJANA  - Sarjana Kerja Sosial,,,,
,0103027,103027,SARJANA  - Sarjana Sains (Pengurusan Pendidikan),1,Expenses,emolument,Elaun Lebih Masa
,0103028,103028,SARJANA  - Sarjana Sains (Pengurusan Pendidikan),1,Expenses,emolument,Elaun Lebih Masa
,0103029,103029,SARJANA  - Sarjana Sains (Pengurusan Pendidikan),,,,
,0103030,103030,SARJANA  - Sarjana Pentadbiran Perniagaan (MOT),1,Expenses,emolument,Elaun Lebih Masa
,0103031,103031,SARJANA  - Sarjana Sains (Sains Pemutusan),1,Expenses,emolument,Elaun Lebih Masa
,0103032,103032,SARJANA  - Sarjana Pentadbiran Perniagaan (Pengurusan Teknologi ),,,,
,0103033,103033,SARJANA  - Sarjana Sains (Sistem Pintar),,,,
,0103034,103034,SARJANA  - Sarjana Sains (Sistem Pintar),1,Expenses,emolument,Faedah Kewangan Lain
,0103035,103035,SARJANA  - Sarjana Sains (Pengurusan),1,Expenses,emolument,Faedah Kewangan Lain
,0103036,103036,SARJANA  - Sarjana Sains (Teknologi Maklumat dan Komunikasi),1,Expenses,emolument,Faedah Kewangan Lain
,0103037,103037,SARJANA  - Sarjana Pentadbiran Perniagaan (Peng.Pbinaan),1,Expenses,emolument,Faedah Kewangan Lain
,0103038,103038,SARJANA  - Sarjana Sains (Teknologi Maklumat),1,Expenses,emolument,Faedah Kewangan Lain
,0103039,103039,SARJANA  - Sarjana Sains (Teknologi Maklumat),1,Expenses,emolument,Faedah Kewangan Lain
,0103040,103040,SARJANA  - Sarjana Sains (Teknologi Maklumat),1,Expenses,emolument,Faedah Kewangan Lain
,0103041,103041,SARJANA  - Sarjana Sains (Teknologi Maklumat),1,Expenses,emolument,Faedah Kewangan Lain
,0103042,103042,SARJANA  - Sarjana Sains (Teknologi Maklumat),1,Expenses,emolument,Faedah Kewangan Lain
,0103043,103043,SARJANA  - Sarjana Sains (Teknologi Maklumat),1,Expenses,emolument,Faedah Kewangan Lain
,0103044,103044,SARJANA  - Sarjana Sains (Perakaunan Antarabangsa),1,Expenses,emolument,Faedah Kewangan Lain
,0103045,103045,SARJANA  - Sarjana Sastera (Pengajian Bahasa Melayu Kontemporari),,,,
,0103046,103046,SARJANA  - Sarjana Sastera (Pengajian Bahasa Melayu Kontemporari),1,Expenses,emolument,Faedah Kewangan Lain
,0103047,103047,SARJANA  - Sarjana Sastera (Pengajian Bahasa Melayu Kontemporari),1,Expenses,emolument,Faedah Kewangan Lain
,0103048,103048,SARJANA  - Sarjana Sains (Sistem Pintar),1,Expenses,emolument,Faedah Kewangan Lain
,0103049,103049,SARJANA  - Sarjana Pengurusan Sumber Manusia,1,Expenses,emolument,Faedah Kewangan Lain
,0103050,103050,SARJANA  - Sarjana Sains (Pengurusan Pelancongan),1,Expenses,emolument,Faedah Kewangan Lain
,0103051,103051,SARJANA  - Sarjana Sains (Kewangan),1,Expenses,emolument,Faedah Kewangan Lain
,0103052,103052,SARJANA  - Sarjana Sains (Kewangan),1,Expenses,emolument,Faedah Kewangan Lain
,0103053,103053,SARJANA  - Sarjana Sains (Kewangan),1,Expenses,emolument,Faedah Kewangan Lain
,0103054,103054,SARJANA  - Sarjana Sains (Sains Pemutusan),1,Expenses,emolument,Faedah Kewangan Lain
,0103055,103055,SARJANA  - Sarjana Sains (Pengurusan),1,Expenses,emolument,Faedah Kewangan Lain
,0103056,103056,SARJANA  - Sarjana Sains (Pengurusan) ,,,,
,0103057,103057,SARJANA  - Sarjana Sains (Pengurusan) ,,,,
,0103058,103058,SARJANA  - Sarjana Pendidikan pengkhususan dalam Pengajaran Bahasa Inggeris,1,Expenses,Perkhidmatan dan Bekalan,Gaji Staf Akademik UUM
,0103059,103059,SARJANA  - Sarjana Pendidikan pengkhususan dalam Pengajaran Bahasa Inggeris,1,Expenses,Perkhidmatan dan Bekalan,Gaji Staf Akademik UUM
,0103060,103060,SARJANA  - Sarjana Sains (Pengurusan) UUM/IAB,1,Expenses,Perkhidmatan dan Bekalan,Gaji Staf Akademik UUM
,0103061,103061,SARJANA  - Sarjana Pengurusan Awam,1,Expenses,Perkhidmatan dan Bekalan,Gaji Staf Akademik UUM
,0103062,103062,SARJANA  - Sarjana Pentadbiran Perniagaan,1,Expenses,Perkhidmatan dan Bekalan,Gaji Staf Akademik UUM
,0103063,103063,SARJANA  - Sarjana Politik Ekonomi Antarabangsa,1,Expenses,Perkhidmatan dan Bekalan,Gaji Staf Akademik UUM
,0103064,103064,SARJANA  - Sarjana Pentadbiran Perniagaan pengkhususan dalam Keusahawanan,1,Expenses,Perkhidmatan dan Bekalan,Gaji Staf Akademik UUM
,0103065,103065,SARJANA  - Sarjana Sains (Perakaunan Antarabangsa),1,Expenses,Perkhidmatan dan Bekalan,Gaji Staf Akademik UUM
,0103066,103066,SARJANA  - Sarjana Sains (Perakaunan Antarabangsa) ,1,Expenses,Perkhidmatan dan Bekalan,Gaji Staf Akademik UUM
,0103067,103067,SARJANA  - Sarjana Sains (Kewangan),1,Expenses,Perkhidmatan dan Bekalan,Gaji Staf Akademik UUM
,0103068,103068,SARJANA  - Sarjana Sains Kewartawanan Multimedia,1,Expenses,Perkhidmatan dan Bekalan,Gaji Staf Akademik UUM
,0103069,103069,SARJANA  - Sarjana Sains Kewartawanan Multimedia,1,Expenses,Perkhidmatan dan Bekalan,Gaji Staf Akademik UUM
,0103070,103070,SARJANA  - Sarjana Sains (Perakaunan Antarabangsa),1,Expenses,Perkhidmatan dan Bekalan,Gaji Staf Akademik UUM
,0103071,103071,SARJANA  - Sarjana Sains (Kaunseling),1,Expenses,Perkhidmatan dan Bekalan,Gaji Staf Akademik UUM
,0103072,103072,SARJANA  - Sarjana Sains (Sains Pemutusan),1,Expenses,Perkhidmatan dan Bekalan,Gaji Staf Akademik UUM
,0103073,103073,SARJANA  - Sarjana Sains (Kaunseling),1,Expenses,Perkhidmatan dan Bekalan,Gaji Staf Akademik UUM
,0103074,103074,SARJANA  - Sarjana Sains (Perbankan),1,Expenses,Perkhidmatan dan Bekalan,Gaji Staf Akademik UUM
,0103075,103075,SARJANA  - Sarjana Sains (Perbankan),1,Expenses,Perkhidmatan dan Bekalan,Gaji Staf Akademik UUM
,0103076,103076,SARJANA  - Sarjana Sains (Perbankan),1,Expenses,Perkhidmatan dan Bekalan,Gaji Staf Akademik UUM
,0103077,103077,SARJANA  - Sarjana Sains (Perniagaan Antarabangsa),1,Expenses,Perkhidmatan dan Bekalan,Gaji Staf Akademik UUM
,0103078,103078,SARJANA  - Sarjana Sains (Perniagaan Antarabangsa),1,Expenses,Perkhidmatan dan Bekalan,Gaji Staf Akademik UUM
,0103079,103079,SARJANA  - Sarjana Sains (Perakaunan),1,Expenses,Perkhidmatan dan Bekalan,Gaji Staf Akademik UUM
,0103080,103080,SARJANA  - Sarjana Pengurusan Awam,,,,
,0103081,103081,SARJANA  - Sarjana Pengurusan Awam,1,Expenses,Perkhidmatan dan Bekalan,Elaun Pembantu Am
,0103082,103082,SARJANA  - Sarjana Pengurusan Awam,1,Expenses,Perkhidmatan dan Bekalan,Elaun Pembantu Am
,0103083,103083,SARJANA  - Sarjana Pengurusan Awam,1,Expenses,Perkhidmatan dan Bekalan,Elaun Pembantu Am
,0103084,103084,SARJANA  - Sarjana Pentadbiran Perniagaan (Perakaunan Profesional),1,Expenses,Perkhidmatan dan Bekalan,Elaun Pembantu Am
,0103085,103085,SARJANA  - Sarjana Sains (Pengajian Strategik),1,Expenses,Perkhidmatan dan Bekalan,Elaun Pembantu Am
,0103086,103086,SARJANA  - Sarjana Sains (Pengajian Strategik),1,Expenses,Perkhidmatan dan Bekalan,Elaun Pembantu Am
,0103087,103087,SARJANA  - Sarjana Pentadbiran Perniagaan (Pengurusan Pelancongan dan Hospitaliti),1,Expenses,Perkhidmatan dan Bekalan,Elaun Pembantu Am
,0103088,103088,SARJANA  - Sarjana Pentadbiran Perniagaan (Pengurusan Pelancongan dan Hospitaliti),1,Expenses,Perkhidmatan dan Bekalan,Elaun Pembantu Am
,0103089,103089,SARJANA  - Sarjana Sains (Pengurusan Pelancongan),1,Expenses,Perkhidmatan dan Bekalan,Elaun Pembantu Am
,0103090,103090,SARJANA  - Sarjana Sains (Insurans),1,Expenses,Perkhidmatan dan Bekalan,Elaun Pembantu Am
,0103091,103091,SARJANA  - Sarjana Sains (Perbankan Islam),1,Expenses,Perkhidmatan dan Bekalan,Elaun Pembantu Am
,0103092,103092,SARJANA  - Sarjana Sains (Kewangan Islam),1,Expenses,Perkhidmatan dan Bekalan,Elaun Pembantu Am
,0103093,103093,SARJANA  - Sarjana Sains (Pengurusan) UUM/INTAN,1,Expenses,Perkhidmatan dan Bekalan,Elaun Pembantu Am
,0103094,103094,SARJANA  - Sarjana Sains (Pengajian Multimedia),1,Expenses,Perkhidmatan dan Bekalan,Elaun Pembantu Am
,0103095,103095,SARJANA  - Sarjana Sains (Pengajian Multimedia),1,Expenses,Perkhidmatan dan Bekalan,Elaun Pembantu Am
,0103096,103096,SARJANA  - Sarjana Sains (Pengajian Multimedia) ,1,Expenses,Perkhidmatan dan Bekalan,Elaun Pembantu Am
,0103097,103097,SARJANA  - Sarjana Pendidikan pengkhususan dalam Psikologi Pendidikan,1,Expenses,Perkhidmatan dan Bekalan,Elaun Pembantu Am
,0103098,103098,SARJANA  - Sarjana Pendidikan pengkhususan dalam Psikologi Pendidikan,1,Expenses,Perkhidmatan dan Bekalan,Elaun Pembantu Am
,0103099,103099,SARJANA  - Sarjana Sains (Pengurusan) UUM/BAE,1,Expenses,Perkhidmatan dan Bekalan,Elaun Pembantu Am
,0103100,103100,SARJANA  - Sarjana Sains (Pengurusan) INTAN,1,Expenses,Perkhidmatan dan Bekalan,Elaun Pembantu Am
,0103101,103101,SARJANA  - Sarjana Sains (Pengurusan Media) ,1,Expenses,Perkhidmatan dan Bekalan,Elaun Pembantu Am
,0103102,103102,SARJANA  - Sarjana Sains (Pengurusan),1,Expenses,Perkhidmatan dan Bekalan,Elaun Pembantu Am
,0103103,103103,SARJANA  - Sarjana Kewangan dan Perbankan Islam,1,Expenses,Perkhidmatan dan Bekalan,Elaun Pembantu Am
,0103104,103104,SARJANA  - Sarjana Sains (Kaunseling),,,,
,0103105,103105,SARJANA  - Sarjana Sains (Teknologi Maklumat dan Komunikasi),1,Expenses,Perkhidmatan dan Bekalan,Elaun Insentif Perkhidmatan Kritikal (BIPK)
,0103106,103106,SARJANA  - Sarjana Pengajian Perniagaan Islam,1,Expenses,Perkhidmatan dan Bekalan,Elaun Insentif Perkhidmatan Kritikal (BIPK)
,0103107,103107,SARJANA  - Sarjana Pengajian Perniagaan Islam ,1,Expenses,Perkhidmatan dan Bekalan,Elaun Insentif Perkhidmatan Kritikal (BIPK)
,0103108,103108,SARJANA  - Sarjana Pentadbiran Perniagaan (e,1,Expenses,Perkhidmatan dan Bekalan,Elaun Insentif Perkhidmatan Kritikal (BIPK)
,0103109,103109,SARJANA  - Sarjana Pendidikan pengkhususan dalam Pendidikan Islam,1,Expenses,Perkhidmatan dan Bekalan,Elaun Insentif Perkhidmatan Kritikal (BIPK)
,0103110,103110,SARJANA  - Sarjana Pendidikan pengkhususan dalam Pendidikan Islam,1,Expenses,Perkhidmatan dan Bekalan,Elaun Insentif Perkhidmatan Kritikal (BIPK)
,0103111,103111,SARJANA  - Sarjana Pentadbiran Perniagaan (Eksekutif),1,Expenses,Perkhidmatan dan Bekalan,Elaun Insentif Perkhidmatan Kritikal (BIPK)
,0103112,103112,SARJANA  - Sarjana Sains (Analisis Data),1,Expenses,Perkhidmatan dan Bekalan,Elaun Insentif Perkhidmatan Kritikal (BIPK)
,0103113,103113,SARJANA  - Sarjana Sains (Teknologi Maklumat & Komunikasi) Cambodia,1,Expenses,Perkhidmatan dan Bekalan,Elaun Insentif Perkhidmatan Kritikal (BIPK)
,0103114,103114,SARJANA  - Sarjana Sains (Perakaunan Pengurusan dan Perancangan),1,Expenses,Perkhidmatan dan Bekalan,Elaun Insentif Perkhidmatan Kritikal (BIPK)
,0103115,103115,SARJANA  - Sarjana Pengurusan Sumber Manusia,,,,
,0103116,103116,SARJANA  - Sarjana Pendidikan pengkhususan dalam Teknologi Pengajaran,1,Expenses,Perkhidmatan dan Bekalan,0
,0103117,103117,SARJANA  - Sarjana Pendidikan pengkhususan dalam Teknologi Pengajaran,1,Expenses,Perkhidmatan dan Bekalan,0
,0103118,103118,SARJANA  - Sarjana Pentadbiran Perniagaan,1,Expenses,Perkhidmatan dan Bekalan,0
,0103119,103119,SARJANA  - Sarjana Sains (Kepengetuaan),1,Expenses,Perkhidmatan dan Bekalan,0
,0103120,103120,SARJANA  - Sarjana Pendidikan,1,Expenses,Perkhidmatan dan Bekalan,0
,0103121,103121,SARJANA  - Sarjana Sastera (Hubungan Antarabangsa),1,Expenses,Perkhidmatan dan Bekalan,0
,0103122,103122,SARJANA  - Sarjana Sains (Pengurusan Teknologi),1,Expenses,Perkhidmatan dan Bekalan,0
,0103123,103123,SARJANA  - Sarjana Pendidikan pengkhususan dalam Kurikulum Dan Pengajaran,1,Expenses,Perkhidmatan dan Bekalan,0
,0103124,103124,SARJANA  - Sarjana Pendidikan pengkhususan dalam Teknologi Pengajaran,1,Expenses,Perkhidmatan dan Bekalan,0
,0103125,103125,SARJANA  - Sarjana Pendidikan pengkhususan dalam Psikologi Pendidikan,1,Expenses,Perkhidmatan dan Bekalan,0
,0103126,103126,SARJANA  - Sarjana Sastera (Komunikasi),1,Expenses,Perkhidmatan dan Bekalan,0
,0103127,103127,SARJANA  - Sarjana Sains (Komunikasi Kepengurusan),1,Expenses,Perkhidmatan dan Bekalan,0
,0103128,103128,SARJANA  - Sarjana Linguistik Terapan,1,Expenses,Perkhidmatan dan Bekalan,0
,0103129,103129,SARJANA  - Sarjana Pendidikan pengkhususan dalam Kurikulum dan Pengajaran,1,Expenses,Perkhidmatan dan Bekalan,0
,0103130,103130,SARJANA  - Sarjana Pendidikan pengkhususan dalam Kurikulum dan Pengajaran,1,Expenses,Perkhidmatan dan Bekalan,0
,0103131,103131,SARJANA  - Sarjana Sains (Teknologi Maklumat),1,Expenses,Perkhidmatan dan Bekalan,0
,0103132,103132,SARJANA  - Sarjana Sastera (Pengajian Bahasa Melayu Kontemporari),1,Expenses,Perkhidmatan dan Bekalan,0
,0103133,103133,SARJANA  - Sarjana Sastera (Sosiologi),1,Expenses,Perkhidmatan dan Bekalan,0
,0103134,103134,SARJANA  - Sarjana Sastera (Psikologi),1,Expenses,Perkhidmatan dan Bekalan,0
,0103135,103135,SARJANA  - Sarjana Sains (Teknokeusahawanan),1,Expenses,Perkhidmatan dan Bekalan,0
,0103136,103136,SARJANA  - Sarjana Pentadbiran Perniagaan (Perakaunan),1,Expenses,Perkhidmatan dan Bekalan,0
,0103137,103137,SARJANA  - Sarjana Pendidikan pengkhususan dalam Pengajaran Bahasa Inggeris,1,Expenses,Perkhidmatan dan Bekalan,0
,0103138,103138,SARJANA  - Sarjana Sastera (Sains Politik),1,Expenses,Perkhidmatan dan Bekalan,0
,0103139,103139,SARJANA  - Sarjana Sastera (Pengajian Islam),1,Expenses,Perkhidmatan dan Bekalan,0
,0103140,103140,SARJANA  - Sarjana Sastera (Kenegaraan),1,Expenses,Perkhidmatan dan Bekalan,0
,0103141,103141,SARJANA  - Sarjana Sastera (Sejarah),1,Expenses,Perkhidmatan dan Bekalan,0
,0103142,103142,SARJANA  - Sarjana Ekonomi,1,Expenses,Perkhidmatan dan Bekalan,0
,0103143,103143,SARJANA  - Sarjana Ekonomi,1,Expenses,Perkhidmatan dan Bekalan,0
,0103144,103144,SARJANA  - Sarjana Ekonomi,1,Expenses,Perkhidmatan dan Bekalan,0
,0103145,103145,SARJANA  - Sarjana Pentadbiran Awam,1,Expenses,Perkhidmatan dan Bekalan,0
,0103146,103146,SARJANA  - Sarjana Sains (Perniagaan Antarabangsa),1,Expenses,Perkhidmatan dan Bekalan,0
,0103147,103147,SARJANA  - Sarjana Sains (Pengajian Strategik),1,Expenses,Perkhidmatan dan Bekalan,0
,0103148,103148,SARJANA  - Sarjana Sains (Pengurusan Keselamatan dan Kesihatan Pekerjaan),1,Expenses,Perkhidmatan dan Bekalan,0
,0103149,103149,SARJANA  - Sarjana Sains (Pengurusan Keselamatan dan Kesihatan Pekerjaan),1,Expenses,Perkhidmatan dan Bekalan,0
,0103150,103150,SARJANA  - Sarjana Sains (Teknologi Maklumat),1,Expenses,Perkhidmatan dan Bekalan,0
,0103151,103151,SARJANA  - Sarjana Sastera Pengajian Kenegaraan,1,Expenses,Perkhidmatan dan Bekalan,0
,0103152,103152,SARJANA  - Sarjana Sains (Teknologi Maklumat),1,Expenses,Perkhidmatan dan Bekalan,0
,0103153,103153,SARJANA  - Sarjana Pentadbiran Perniagaan (Pengurusan Rantaian Bekalan),1,Expenses,Perkhidmatan dan Bekalan,0
,0103154,103154,SARJANA  - Sarjana Sastera (Politik Malaysia),1,Expenses,Perkhidmatan dan Bekalan,0
,0103155,103155,SARJANA  - Sarjana Linguistik Terapan,,,,
,0103156,103156,SARJANA  - Sarjana Linguistik Terapan,1,Expenses,Perkhidmatan dan Bekalan,Tunggakan Elaun Lebih Masa Staf Akademik UUM
,0103157,103157,SARJANA  - Sarjana Linguistik Terapan,1,Expenses,Perkhidmatan dan Bekalan,Tunggakan Elaun Lebih Masa Staf Akademik UUM
,0103158,103158,SARJANA  - Sarjana Sastera,1,Expenses,Perkhidmatan dan Bekalan,Tunggakan Elaun Lebih Masa Staf Akademik UUM
,0103159,103159,SARJANA  - Sarjana Sains (Pengurusan) ,1,Expenses,Perkhidmatan dan Bekalan,Tunggakan Elaun Lebih Masa Staf Akademik UUM
,0103160,103160,SARJANA  - Sarjana Pentadbiran Perniagaan (Pengurusan Kejuruteraan),1,Expenses,Perkhidmatan dan Bekalan,Tunggakan Elaun Lebih Masa Staf Akademik UUM
,0103161,103161,SARJANA  - Sarjana Sains (Teknokeusahawanan),1,Expenses,Perkhidmatan dan Bekalan,Tunggakan Elaun Lebih Masa Staf Akademik UUM
,0103162,103162,SARJANA  - Sarjana Sains (Kaunseling),1,Expenses,Perkhidmatan dan Bekalan,Tunggakan Elaun Lebih Masa Staf Akademik UUM
,0103163,103163,SARJANA  - Sarjana Sastera (Kerja Sosial),1,Expenses,Perkhidmatan dan Bekalan,Tunggakan Elaun Lebih Masa Staf Akademik UUM
,0103164,103164,SARJANA  - Sarjana Pengurusan Sumber Manusia,1,Expenses,Perkhidmatan dan Bekalan,Tunggakan Elaun Lebih Masa Staf Akademik UUM
,0103165,103165,SARJANA  - Sarjana Sains (Matematik),1,Expenses,Perkhidmatan dan Bekalan,Tunggakan Elaun Lebih Masa Staf Akademik UUM
,0103166,103166,SARJANA  - Sarjana Sains (Statistik),1,Expenses,Perkhidmatan dan Bekalan,Tunggakan Elaun Lebih Masa Staf Akademik UUM
,0103167,103167,SARJANA  - Sarjana Undang,1,Expenses,Perkhidmatan dan Bekalan,Tunggakan Elaun Lebih Masa Staf Akademik UUM
,0103168,103168,SARJANA  - Sarjana Sains (Kaunseling),1,Expenses,Perkhidmatan dan Bekalan,Tunggakan Elaun Lebih Masa Staf Akademik UUM
,0103169,103169,SARJANA  - Sarjana Sains (Kaunseling),1,Expenses,Perkhidmatan dan Bekalan,Tunggakan Elaun Lebih Masa Staf Akademik UUM
,0103170,103170,SARJANA  - Sarjana Pentadbiran Perniagaan (Perakaunan),1,Expenses,Perkhidmatan dan Bekalan,Tunggakan Elaun Lebih Masa Staf Akademik UUM
,0103171,103171,SARJANA  - Sarjana Sains (Perbankan) ,1,Expenses,Perkhidmatan dan Bekalan,Tunggakan Elaun Lebih Masa Staf Akademik UUM
,0103172,103172,SARJANA  - Sarjana Pengurusan Sumber Manusia ,1,Expenses,Perkhidmatan dan Bekalan,Tunggakan Elaun Lebih Masa Staf Akademik UUM
,0103173,103173,SARJANA  - Sarjana Pentadbiran Perniagaan (Perakaunan),1,Expenses,Perkhidmatan dan Bekalan,Tunggakan Elaun Lebih Masa Staf Akademik UUM
,0103174,103174,SARJANA  - Sarjana Pentadbiran Perniagaan pengkhususan dalam Perakaunan Profesional,1,Expenses,Perkhidmatan dan Bekalan,Tunggakan Elaun Lebih Masa Staf Akademik UUM
,0103175,103175,SARJANA  - Sarjana Pentadbiran Perniagaan (Kewangan),1,Expenses,Perkhidmatan dan Bekalan,Tunggakan Elaun Lebih Masa Staf Akademik UUM
,0103176,103176,SARJANA  - Sarjana Pentadbiran Perniagaan (Pengurusan Rantaian Bekalan),1,Expenses,Perkhidmatan dan Bekalan,Tunggakan Elaun Lebih Masa Staf Akademik UUM
,0103177,103177,SARJANA  - Sarjana Pentadbiran Perniagaan (Pengurusan Rantaian Bekalan),1,Expenses,Perkhidmatan dan Bekalan,Tunggakan Elaun Lebih Masa Staf Akademik UUM
,0103178,103178,SARJANA  - Sarjana Pentadbiran Perniagaan (Pengurusan Teknologi),1,Expenses,Perkhidmatan dan Bekalan,Tunggakan Elaun Lebih Masa Staf Akademik UUM
,0103179,103179,SARJANA  - Sarjana Pentadbiran Perniagaan (Pengurusan Projek),,,,
,0103180,103180,SARJANA  - Sarjana Sains (Pengurusan Operasi),1,Expenses,Perkhidmatan dan Bekalan,Bantuan Khas Kewangan (Tetap)
,0103181,103181,SARJANA  - Sarjana Sains (Kepengetuaan),1,Expenses,Perkhidmatan dan Bekalan,Bantuan Khas Kewangan (Tetap)
,0103182,103182,SARJANA  - Sarjana Sains (Kepengetuaan),1,Expenses,Perkhidmatan dan Bekalan,Bantuan Khas Kewangan (Tetap)
,0103183,103183,SARJANA  - Sarjana Ekonomi,1,Expenses,Perkhidmatan dan Bekalan,Bantuan Khas Kewangan (Tetap)
,0103184,103184,SARJANA  - Sarjana Undang,1,Expenses,Perkhidmatan dan Bekalan,Bantuan Khas Kewangan (Tetap)
,0103185,103185,SARJANA  - Sarjana Sains (Ekonomi Gunaan),1,Expenses,Perkhidmatan dan Bekalan,Bantuan Khas Kewangan (Tetap)
,0103186,103186,SARJANA  - Sarjana Undang-Undang,1,Expenses,Perkhidmatan dan Bekalan,Bantuan Khas Kewangan (Tetap)
,0103187,103187,SARJANA  - Sarjana Undang-Undang,1,Expenses,Perkhidmatan dan Bekalan,Bantuan Khas Kewangan (Tetap)
,0103188,103188,SARJANA  - Sarjana Sains (Teknokeusahawanan),1,Expenses,Perkhidmatan dan Bekalan,Bantuan Khas Kewangan (Tetap)
,0103189,103189,SARJANA  - Sarjana Sains (Pengurusan Keselamatan dan Kesihatan Pekerjaan),1,Expenses,Perkhidmatan dan Bekalan,Bantuan Khas Kewangan (Tetap)
,0103190,103190,SARJANA  - Sarjana Ekonomi ,1,Expenses,Perkhidmatan dan Bekalan,Bantuan Khas Kewangan (Tetap)
,0103191,103191,SARJANA  - Sarjana Pendidikan pengkhususan Pendidikan Nilai dan Moral,1,Expenses,Perkhidmatan dan Bekalan,Bantuan Khas Kewangan (Tetap)
,0103192,103192,SARJANA  - Sarjana Sains (Komunikasi Kepengurusan),1,Expenses,Perkhidmatan dan Bekalan,Bantuan Khas Kewangan (Tetap)
,0103193,103193,SARJANA  - Sarjana Sains (Komunikasi Kepengurusan),,,,Bantuan Khas Kewangan (Tetap)
,0103194,103194,SARJANA  - Sarjana Ekonomi,1,Expenses,Perkhidmatan dan Bekalan,Bantuan Khas Kewangan (Tetap)
,0103195,103195,SARJANA  - Sarjana Falsafah ,1,Expenses,Perkhidmatan dan Bekalan,Bantuan Khas Kewangan (Tetap)
,0103196,103196,SARJANA  - Sarjana Falsafah ,1,Expenses,Perkhidmatan dan Bekalan,Bantuan Khas Kewangan (Tetap)
,0103197,103197,SARJANA  - Sarjana Falsafah ,1,Expenses,Perkhidmatan dan Bekalan,Bantuan Khas Kewangan (Tetap)
,0103198,103198,SARJANA Sarjana Muda Pentadbiran Perniagaan dengan Kepujian,1,Expenses,Perkhidmatan dan Bekalan,Bantuan Khas Kewangan (Tetap)
,0103199,103199,SARJANA Pengurusan Perniagaan,1,Expenses,Perkhidmatan dan Bekalan,Bantuan Khas Kewangan (Tetap)
,0104000,104000,DOKTOR FALSAFAH  -UMUM,1,Expenses,Perkhidmatan dan Bekalan,Bantuan Khas Kewangan (Tetap)
,0104001,104001,DOKTOR FALSAFAH  - Doktor Falsafah,1,Expenses,Perkhidmatan dan Bekalan,Bantuan Khas Kewangan (Tetap)
,0104002,104002,DOKTOR FALSAFAH  - Doktor Falsafah,1,Expenses,Perkhidmatan dan Bekalan,Bantuan Khas Kewangan (Tetap)
,0104003,104003,DOKTOR FALSAFAH  - Doktor Falsafah (Pendidikan),1,Expenses,Perkhidmatan dan Bekalan,Bantuan Khas Kewangan (Tetap)
,0104004,104004,DOKTOR FALSAFAH  - Doktor Falsafah (Pengurusan Kesihatan dan Keselamatan Pekerjaan),1,Expenses,Perkhidmatan dan Bekalan,Bantuan Khas Kewangan (Tetap)
,0104005,104005,DOKTOR FALSAFAH  - Doktor Falsafah (Ekonomi),1,Expenses,Perkhidmatan dan Bekalan,Bantuan Khas Kewangan (Tetap)
,0104006,104006,DOKTOR FALSAFAH  - Doktor Falsafah (Pemasaran),1,Expenses,Perkhidmatan dan Bekalan,Bantuan Khas Kewangan (Tetap)
,0104007,104007,DOKTOR FALSAFAH  - Doktor Falsafah (Perniagaan Antarabangsa),1,Expenses,Perkhidmatan dan Bekalan,Bantuan Khas Kewangan (Tetap)
,0104008,104008,DOKTOR FALSAFAH  - Doktor Falsafah (Pengurusan Pelancongan dan Hospitaliti),1,Expenses,Perkhidmatan dan Bekalan,Bantuan Khas Kewangan (Tetap)
,0104009,104009,DOKTOR FALSAFAH  - Doktor Falsafah (Pengajian Alam Sekitar),1,Expenses,Perkhidmatan dan Bekalan,Bantuan Khas Kewangan (Tetap)
,0104010,104010,DOKTOR FALSAFAH  - Doktor Falsafah (Pengurusan Operasi),1,Expenses,Perkhidmatan dan Bekalan,Bantuan Khas Kewangan (Tetap)
,0104011,104011,DOKTOR FALSAFAH  - Doktor Falsafah (Multimedia),1,Expenses,Perkhidmatan dan Bekalan,Bantuan Khas Kewangan (Tetap)
,0104012,104012,DOKTOR FALSAFAH  - Doktor Falsafah (Penyiaran),1,Expenses,Perkhidmatan dan Bekalan,Bantuan Khas Kewangan (Tetap)
,0104013,104013,DOKTOR FALSAFAH  - Doktor Falsafah (Pengurusan Media),1,Expenses,Perkhidmatan dan Bekalan,Bantuan Khas Kewangan (Tetap)
,0104014,104014,DOKTOR FALSAFAH  - Doktor Falsafah,1,Expenses,Perkhidmatan dan Bekalan,Bantuan Khas Kewangan (Tetap)
,0104015,104015,DOKTOR FALSAFAH  - Doktor Falsafah (Pengurusan Kesihatan),1,Expenses,Perkhidmatan dan Bekalan,Bantuan Khas Kewangan (Tetap)
,0104016,104016,DOKTOR FALSAFAH  - Doktor Falsafah (Kewangan dan Perbankan Islam),1,Expenses,Perkhidmatan dan Bekalan,Bantuan Khas Kewangan (Tetap)
,0104017,104017,DOKTOR FALSAFAH  - Doktor Falsafah (Advisori Muamalat & Syariah),1,Expenses,Perkhidmatan dan Bekalan,Bantuan Khas Kewangan (Tetap)
,0104018,104018,DOKTOR FALSAFAH  - Doktor Falsafah (Pengurusan Islam),1,Expenses,Perkhidmatan dan Bekalan,Bantuan Khas Kewangan (Tetap)
,0104019,104019,DOKTOR FALSAFAH  - Doktor Falsafah (Ekonomi Islam),1,Expenses,Perkhidmatan dan Bekalan,Bantuan Khas Kewangan (Tetap)
,0104020,104020,DOKTOR FALSAFAH  - Doktor Falsafah (Pengurusan Penjagaan Kesihatan),1,Expenses,Perkhidmatan dan Bekalan,Bantuan Khas Kewangan (Tetap)
,0104021,104021,DOKTOR FALSAFAH  - Doktor Falsafah (Perniagaan Tani),1,Expenses,Perkhidmatan dan Bekalan,Bantuan Khas Kewangan (Tetap)
,0104022,104022,DOKTOR FALSAFAH  - Doktor Falsafah (Pengajian Sosial),1,Expenses,Perkhidmatan dan Bekalan,Bantuan Khas Kewangan (Tetap)
,0104023,104023,DOKTOR FALSAFAH  - Doktor Falsafah (Keusahawanan),1,Expenses,Perkhidmatan dan Bekalan,Bantuan Khas Kewangan (Tetap)
,0104024,104024,DOKTOR FALSAFAH  - Doktor Falsafah (Sains Komputer),1,Expenses,Perkhidmatan dan Bekalan,Bantuan Khas Kewangan (Tetap)
,0104025,104025,DOKTOR FALSAFAH  - Doktor Falsafah (Sains Pemutusan/Penyelidikan Operasi),1,Expenses,Perkhidmatan dan Bekalan,Bantuan Khas Kewangan (Tetap)
,0104026,104026,DOKTOR FALSAFAH  - Doktor Falsafah (Sains Politik),1,Expenses,Perkhidmatan dan Bekalan,Bantuan Khas Kewangan (Tetap)
,0104027,104027,DOKTOR FALSAFAH  - Doktor Falsafah (Pengajian Strategik),1,Expenses,Perkhidmatan dan Bekalan,Bantuan Khas Kewangan (Tetap)
,0104028,104028,DOKTOR FALSAFAH  - Doktor Falsafah (Sistem Maklumat Pengurusan),1,Expenses,Perkhidmatan dan Bekalan,Bantuan Khas Kewangan (Tetap)
,0104029,104029,DOKTOR FALSAFAH  - Doktor Falsafah (Pengurusan Industri Kreatif Multimedia),1,Expenses,Perkhidmatan dan Bekalan,Bantuan Khas Kewangan (Tetap)
,0104030,104030,DOKTOR FALSAFAH  - Doktor Falsafah (Pengurusan Industri Kreatif Seni Budaya),1,Expenses,Perkhidmatan dan Bekalan,Bantuan Khas Kewangan (Tetap)
,0104031,104031,DOKTOR FALSAFAH  - Doktor Falsafah (Pengurusan Industri Kreatif Seni Budaya),1,Expenses,Perkhidmatan dan Bekalan,Bantuan Khas Kewangan (Tetap)
,0104032,104032,DOKTOR FALSAFAH  - Doktor Falsafah (Pengurusan Risiko dan Insurans),1,Expenses,Perkhidmatan dan Bekalan,Bantuan Khas Kewangan (Tetap)
,0104033,104033,DOKTOR FALSAFAH  - Doktor Falsafah (Komunikasi),1,Expenses,Perkhidmatan dan Bekalan,Bantuan Khas Kewangan (Tetap)
,0104034,104034,"DOKTOR FALSAFAH  - Doktor Falsafah (Pengurusan Teknologi, Operasi & Logistik)",1,Expenses,Perkhidmatan dan Bekalan,Bantuan Khas Kewangan (Tetap)
,0104035,104035,DOKTOR FALSAFAH  - Doktor Falsafah (Pengajian Antarabangsa),1,Expenses,Perkhidmatan dan Bekalan,Bantuan Khas Kewangan (Tetap)
,0104036,104036,DOKTOR FALSAFAH  - Doktor Falsafah (Pengurusan Awam),1,Expenses,Perkhidmatan dan Bekalan,Bantuan Khas Kewangan (Tetap)
,0104037,104037,DOKTOR FALSAFAH  - Doktor Falsafah (Pelancongan dan Hospitaliti),1,Expenses,Perkhidmatan dan Bekalan,Bantuan Khas Kewangan (Tetap)
,0104038,104038,DOKTOR FALSAFAH  - Doktor Falsafah (Pengurusan Sumber Manusia),1,Expenses,Perkhidmatan dan Bekalan,Bantuan Khas Kewangan (Tetap)
,0104039,104039,DOKTOR FALSAFAH  - Doktor Falsafah (Perniagaan Antarabangsa),1,Expenses,Perkhidmatan dan Bekalan,Bantuan Khas Kewangan (Tetap)
,0104040,104040,DOKTOR FALSAFAH  - Doktor Persuratan,1,Expenses,Perkhidmatan dan Bekalan,Bantuan Khas Kewangan (Tetap)
,0104041,104041,DOKTOR FALSAFAH  - Doktor Falsafah (Linguistik Terapan),1,Expenses,Perkhidmatan dan Bekalan,Bantuan Khas Kewangan (Tetap)
,0104042,104042,DOKTOR FALSAFAH  - Doktor Falsafah (Sains Fizikal),1,Expenses,Perkhidmatan dan Bekalan,Bantuan Khas Kewangan (Tetap)
,0104043,104043,DOKTOR FALSAFAH  - Doktor Falsafah (Statistik),1,Expenses,Perkhidmatan dan Bekalan,Bantuan Khas Kewangan (Tetap)
,0104044,104044,DOKTOR FALSAFAH  - Doktor Falsafah (Matematik),1,Expenses,Perkhidmatan dan Bekalan,Bantuan Khas Kewangan (Tetap)
,0104045,104045,DOKTOR FALSAFAH  - Doktor Falsafah (Peng. Keselamatan & Kesihatan Pekerjaan),1,Expenses,Perkhidmatan dan Bekalan,Bantuan Khas Kewangan (Tetap)
,0104046,104046,DOKTOR FALSAFAH  - Doktor Falsafah (Kerja Sosial),1,Expenses,Perkhidmatan dan Bekalan,Bantuan Khas Kewangan (Tetap)
,0104047,104047,DOKTOR FALSAFAH  - Doktor Falsafah (Psikologi),1,Expenses,Perkhidmatan dan Bekalan,Bantuan Khas Kewangan (Tetap)
,0104048,104048,DOKTOR FALSAFAH  - Doktor Falsafah (Pengajian Islam),1,Expenses,Perkhidmatan dan Bekalan,Bantuan Khas Kewangan (Tetap)
,0104049,104049,DOKTOR FALSAFAH  - Doktor Falsafah (Pengajian Bahasa Melayu Kontemporari),1,Expenses,Perkhidmatan dan Bekalan,Bantuan Khas Kewangan (Tetap)
,0104050,104050,DOKTOR FALSAFAH  - Doktor Falsafah (Undang-Undang),1,Expenses,Perkhidmatan dan Bekalan,Bantuan Khas Kewangan (Tetap)
,0104051,104051,DOKTOR FALSAFAH  - Doktor Falsafah (Kewangan dan Perbankan),1,Expenses,Perkhidmatan dan Bekalan,Bantuan Khas Kewangan (Tetap)
,0104052,104052,DOKTOR FALSAFAH  - Doktor Falsafah (Sejarah),1,Expenses,Perkhidmatan dan Bekalan,Bantuan Khas Kewangan (Tetap)
,0104053,104053,DOKTOR FALSAFAH  - Doktor Falsafah (Pentadbiran Awam),1,Expenses,Perkhidmatan dan Bekalan,Bantuan Khas Kewangan (Tetap)
,0104054,104054,DOKTOR FALSAFAH  - Doktor Falsafah (Pengurusan Pembangunan),,,,
,0104055,104055,DOKTOR FALSAFAH  - Doktor Falsafah (Sosiologi),1,Expenses,Perkhidmatan dan Bekalan,Sewaan Kuarter Staff
,0104056,104056,DOKTOR FALSAFAH  - Doktor Falsafah (Islamicjerusalem Studies),1,Expenses,Perkhidmatan dan Bekalan,Sewaan Kuarter Staff
,0104057,104057,DOKTOR FALSAFAH  - Doktor Falsafah (Kepimpinan & Gelagat Organisasi),1,Expenses,Perkhidmatan dan Bekalan,Sewaan Kuarter Staff
,0104058,104058,DOKTOR FALSAFAH  - Doktor Falsafah (Inovasi & Keusahawanan),1,Expenses,Perkhidmatan dan Bekalan,Sewaan Kuarter Staff
,0104059,104059,DOKTOR FALSAFAH  - Doktor Falsafah (Analisis & Polisi Kewangan),1,Expenses,Perkhidmatan dan Bekalan,Sewaan Kuarter Staff
,0104060,104060,DOKTOR FALSAFAH  - Doktor Falsafah (Analisis Pemasaran & Pengguna),1,Expenses,Perkhidmatan dan Bekalan,Sewaan Kuarter Staff
,0104061,104061,DOKTOR FALSAFAH  - Doktor Falsafah (Sistem Maklumat Perniagaan),1,Expenses,Perkhidmatan dan Bekalan,Sewaan Kuarter Staff
,0104062,104062,DOKTOR FALSAFAH  - Doktor Falsafah (Pengurusan),1,Expenses,Perkhidmatan dan Bekalan,Sewaan Kuarter Staff
,0104063,104063,DOKTOR FALSAFAH  - Doktor Falsafah (Ekonomi Pembangunan & Industri),1,Expenses,Perkhidmatan dan Bekalan,Sewaan Kuarter Staff
,0104064,104064,"DOKTOR FALSAFAH  - Doktor Falsafah (Operation, Procurement and Supply Chain Management)",1,Expenses,Perkhidmatan dan Bekalan,Sewaan Kuarter Staff
,0104065,104065,DOKTOR FALSAFAH  - Doktor Falsafah (Business Communication Strategy),1,Expenses,Perkhidmatan dan Bekalan,Sewaan Kuarter Staff
,0104066,104066,DOKTOR FALSAFAH  - Doktor Falsafah (Global Human Capital and Talent Management),1,Expenses,Perkhidmatan dan Bekalan,Sewaan Kuarter Staff
,0104067,104067,DOKTOR FALSAFAH  - Doktor Falsafah (Teknologi Maklumat),1,Expenses,Perkhidmatan dan Bekalan,Sewaan Kuarter Staff
,0104068,104068,DOKTOR FALSAFAH  - Doktor Falsafah (Kaunseling),1,Expenses,Perkhidmatan dan Bekalan,Sewaan Kuarter Staff
,0104069,104069,DOKTOR FALSAFAH  - Doktor Falsafah (Perakaunan),1,Expenses,Perkhidmatan dan Bekalan,Sewaan Kuarter Staff
,0104070,104070,DOKTOR FALSAFAH  - Doktor Falsafah (Ekonomi),1,Expenses,Perkhidmatan dan Bekalan,Sewaan Kuarter Staff
,0104071,104071,DOKTOR FALSAFAH  - Doktor Pentadbiran Perniagaan,1,Expenses,Perkhidmatan dan Bekalan,Sewaan Kuarter Staff
,0104072,104072,DOKTOR FALSAFAH  - Doktor Pentadbiran Perniagaan,1,Expenses,Perkhidmatan dan Bekalan,Sewaan Kuarter Staff
,0104073,104073,DOKTOR FALSAFAH  - Pengajian Kedoktoran (Pengurusan),1,Expenses,Perkhidmatan dan Bekalan,Sewaan Kuarter Staff
,0104074,104074,DOKTOR FALSAFAH  - Pengajian Kedoktoran (Pengurusan Awam),1,Expenses,Perkhidmatan dan Bekalan,Sewaan Kuarter Staff
,0104075,104075,DOKTOR FALSAFAH  - Doktor Pentadbiran Perniagaan,1,Expenses,Perkhidmatan dan Bekalan,Sewaan Kuarter Staff
,0104076,104076,DOKTOR FALSAFAH  - Pengajian Kedoktoran (Pengurusan Teknologi),1,Expenses,Perkhidmatan dan Bekalan,Sewaan Kuarter Staff
,0104077,104077,DOKTOR FALSAFAH  - Pengajian Kedoktoran (Pemasaran),1,Expenses,Perkhidmatan dan Bekalan,Sewaan Kuarter Staff
,0104078,104078,DOKTOR FALSAFAH  - Doktor Pengurusan,1,Expenses,Perkhidmatan dan Bekalan,Sewaan Kuarter Staff
,0104079,104079,DOKTOR FALSAFAH  - Doktor Pengurusan,1,Expenses,Perkhidmatan dan Bekalan,Sewaan Kuarter Staff
,0104080,104080,DOKTOR FALSAFAH  - Doktor Pengurusan,1,Expenses,Perkhidmatan dan Bekalan,Sewaan Kuarter Staff
,0105000,105000,PASCAKEDOKTORAN  -UMUM,1,Expenses,Perkhidmatan dan Bekalan,Sewaan Kuarter Staff
,0105001,105001,PASCAKEDOKTORAN  - Pascakedoktoran (Sejarah),1,Expenses,Perkhidmatan dan Bekalan,Sewaan Kuarter Staff
,0105002,105002,PASCAKEDOKTORAN  - Pascakedoktoran (Ekonomi),1,Expenses,Perkhidmatan dan Bekalan,Sewaan Kuarter Staff
,0105003,105003,PASCAKEDOKTORAN  - Pascakedoktoran (Kewangan dan Perbankan),1,Expenses,Perkhidmatan dan Bekalan,Sewaan Kuarter Staff
,0105004,105004,PASCAKEDOKTORAN  - Pascakedoktoran (Perniagaan Islam),1,Expenses,Perkhidmatan dan Bekalan,Sewaan Kuarter Staff
,0105005,105005,"PASCAKEDOKTORAN  - Pascakedoktoran (Pengurusan Teknologi, Operasi & Logistik)",1,Expenses,Perkhidmatan dan Bekalan,Sewaan Kuarter Staff
,0105006,105006,PASCAKEDOKTORAN  - Pasckedoktoran (Pengajian Kerajaan),1,Expenses,Perkhidmatan dan Bekalan,Sewaan Kuarter Staff
,0105007,105007,PASCAKEDOKTORAN  - Pascakedoktoran (Pengajian Antarabangsa),1,Expenses,Perkhidmatan dan Bekalan,Sewaan Kuarter Staff
,0105008,105008,PASCAKEDOKTORAN  - Pascakedoktoran (Undang,1,Expenses,Perkhidmatan dan Bekalan,Sewaan Kuarter Staff
,0105009,105009,"PASCAKEDOKTORAN  - Pascakedoktoran (Pengurusan Pelancongan, Hospitaliti & Alam Sekitar)",1,Expenses,Perkhidmatan dan Bekalan,Sewaan Kuarter Staff
,0105010,105010,PASCAKEDOKTORAN  - Pascakedoktoran (Linguistik Terapan),1,Expenses,Perkhidmatan dan Bekalan,Sewaan Kuarter Staff
,0105011,105011,PASCAKEDOKTORAN  - Pascakedoktoran (Perniagaan Antarabangsa),1,Expenses,Perkhidmatan dan Bekalan,Sewaan Kuarter Staff
,0105012,105012,PASCAKEDOKTORAN  - Pascakedoktoran (Pengajian Islam),1,Expenses,Perkhidmatan dan Bekalan,Sewaan Kuarter Staff
,0105013,105013,PASCAKEDOKTORAN  - Pascakedoktoran,1,Expenses,Perkhidmatan dan Bekalan,Sewaan Kuarter Staff
,0105014,105014,PASCAKEDOKTORAN  - Pascakedoktoran (Perkomputeran),1,Expenses,Perkhidmatan dan Bekalan,Sewaan Kuarter Staff
,0105015,105015,PASCAKEDOKTORAN  - Pascakedoktoran (Pendidikan dan Bahasa Moden),1,Expenses,Perkhidmatan dan Bekalan,Sewaan Kuarter Staff
,0105016,105016,PASCAKEDOKTORAN  - Pascakedoktoran (Teknologi Multimedia dan Komunikasi),1,Expenses,Perkhidmatan dan Bekalan,Sewaan Kuarter Staff
,0105017,105017,PASCAKEDOKTORAN  - Pascakedoktoran (Sains Kuantitatif),1,Expenses,Perkhidmatan dan Bekalan,Sewaan Kuarter Staff
,0105018,105018,PASCAKEDOKTORAN  - Pascakedoktoran (Pembangunan Sosial),1,Expenses,Perkhidmatan dan Bekalan,Sewaan Kuarter Staff
,0105019,105019,PASCAKEDOKTORAN  - Pascakedoktoran (Perakaunan),1,Expenses,Perkhidmatan dan Bekalan,Sewaan Kuarter Staff
,0105020,105020,PASCAKEDOKTORAN  - Pascakedoktoran (Pengurusan Perniagaan),1,Expenses,Perkhidmatan dan Bekalan,Sewaan Kuarter Staff
,0105021,105021,PASCAKEDOKTORAN Pengurusan Perniagaan,1,Expenses,Perkhidmatan dan Bekalan,Sewaan Kuarter Staff
,0106000,106000,PROGRAM EKSEKUTIF  -UMUM,1,Expenses,Perkhidmatan dan Bekalan,Sewaan Kuarter Staff
,0106001,106001,PROGRAM EKSEKUTIF  - Pengurusan Hal Ehwal Antarabangsa,1,Expenses,Perkhidmatan dan Bekalan,Sewaan Kuarter Staff
,0106002,106002,PROGRAM EKSEKUTIF  - Sarjana Muda Komunikasi dengan Kepujian,1,Expenses,Perkhidmatan dan Bekalan,Sewaan Kuarter Staff
,0106003,106003,PROGRAM EKSEKUTIF  - Sarjana Muda Pengurusan Awam dengan Kepujian,1,Expenses,Perkhidmatan dan Bekalan,Sewaan Kuarter Staff
,0106004,106004,PROGRAM EKSEKUTIF  - Sarjana Muda Pengurusan Perniagaan dengan Kepujian,1,Expenses,Perkhidmatan dan Bekalan,Sewaan Kuarter Staff
,0107000,107000,PENGAJIAN JARAK JAUH  -UMUM,1,Expenses,Perkhidmatan dan Bekalan,Sewaan Kuarter Staff
,0107001,107001,PENGAJIAN JARAK JAUH  - Pengurusan Hal Ehwal Antarabangsa,1,Expenses,Perkhidmatan dan Bekalan,Sewaan Kuarter Staff
,0107002,107002,PENGAJIAN JARAK JAUH  - Sarjana Muda Komunikasi dengan Kepujian,1,Expenses,Perkhidmatan dan Bekalan,Sewaan Kuarter Staff
,0107003,107003,PENGAJIAN JARAK JAUH  - Pengurusan Pembangunan,1,Expenses,Perkhidmatan dan Bekalan,Sewaan Kuarter Staff
,0107004,107004,PENGAJIAN JARAK JAUH  - Sarjana Muda Pengurusan Awam dengan Kepujian,,,,
,0107005,107005,PENGAJIAN JARAK JAUH  - Sarjana Muda Pengurusan Risiko dan Insurans dengan Kepujian,1,Expenses,Perkhidmatan dan Bekalan,Alat-alat Ganti
,0107006,107006,PENGAJIAN JARAK JAUH  - Sarjana Muda Pengurusan Industri Kreatif,1,Expenses,Perkhidmatan dan Bekalan,Alat-alat Ganti
,0107007,107007,PENGAJIAN JARAK JAUH  - Pentadbiran Muamalat,1,Expenses,Perkhidmatan dan Bekalan,Alat-alat Ganti
,0107008,107008,PENGAJIAN JARAK JAUH  - Sarjana Muda Kewangan dan Perbankan Islam,1,Expenses,Perkhidmatan dan Bekalan,Alat-alat Ganti
,0107009,107009,PENGAJIAN JARAK JAUH  - Sarjana Muda Pengurusan Perniagaan dengan Kepujian,1,Expenses,Perkhidmatan dan Bekalan,Alat-alat Ganti
,0107010,107010,PENGAJIAN JARAK JAUH  - Sarjana Muda Pentadbiran Perniagaan dengan Kepujian,1,Expenses,Perkhidmatan dan Bekalan,Alat-alat Ganti
,0107011,107011,PENGAJIAN JARAK JAUH  - Pengurusan Perniagaan Antarabangsa,1,Expenses,Perkhidmatan dan Bekalan,Alat-alat Ganti
,0108000,108000,PROGRAM KERJASAMA  -UMUM,1,Expenses,Perkhidmatan dan Bekalan,Alat-alat Ganti
,0108001,108001,PROGRAM KERJASAMA  - Pengurusan Hal Ehwal Antarabangsa,1,Expenses,Perkhidmatan dan Bekalan,Alat-alat Ganti
,0108002,108002,PROGRAM KERJASAMA  - Komunikasi,,,,Alat-alat Ganti
,0108003,108003,PROGRAM KERJASAMA  - Sarjana Muda Pengurusan Awam dengan Kepujian,1,Expenses,Perkhidmatan dan Bekalan,Alat-alat Ganti
,0108004,108004,PROGRAM KERJASAMA  - Pengurusan Perniagaan,1,Expenses,Perkhidmatan dan Bekalan,Alat-alat Ganti
,0108005,108005,PROGRAM KERJASAMA  - Pengurusan Perniagaan Antarabangsa,1,Expenses,Perkhidmatan dan Bekalan,Alat-alat Ganti
,0109000,109000,PROGRAM KAWAL SELIA  -UMUM,1,Expenses,Perkhidmatan dan Bekalan,Alat-alat Ganti
,0109001,109001,PROGRAM KAWAL SELIA  - Sarjana Muda Komunikasi dengan Kepujian,1,Expenses,Perkhidmatan dan Bekalan,Alat-alat Ganti
,0109002,109002,PROGRAM KAWAL SELIA  - Sarjana Muda Kewangan dengan Kepujian,1,Expenses,Perkhidmatan dan Bekalan,Alat-alat Ganti
,0109003,109003,PROGRAM KAWAL SELIA  - Multimedia,1,Expenses,Perkhidmatan dan Bekalan,Alat-alat Ganti
,0109004,109004,PROGRAM KAWAL SELIA  - Sarjana Muda Pengurusan Perniagaan dengan Kepujian,1,Expenses,Perkhidmatan dan Bekalan,Alat-alat Ganti
,0109005,109005,PROGRAM KAWAL SELIA  - Sarjana Muda Pengurusan Hospitaliti dengan Kepujian,1,Expenses,Perkhidmatan dan Bekalan,Alat-alat Ganti
,0109006,109006,PROGRAM KAWAL SELIA  - Sarjana Muda Pentadbiran Perniagaan dengan Kepujian,1,Expenses,Perkhidmatan dan Bekalan,Alat-alat Ganti
,0109007,109007,PROGRAM KAWAL SELIA  - Sarjana Muda Teknologi Maklumat dengan Kepujian,1,Expenses,Perkhidmatan dan Bekalan,Alat-alat Ganti
,0109008,109008,PROGRAM KAWAL SELIA  - Sarjana Muda Sains dengan Kepujian (Teknologi Maklumat),1,Expenses,Perkhidmatan dan Bekalan,Alat-alat Ganti
,0109009,109009,PROGRAM KAWAL SELIA  - Sarjana Muda Pengurusan Sumber Manusia,1,Expenses,Perkhidmatan dan Bekalan,Alat-alat Ganti
,0109010,109010,PROGRAM KAWAL SELIA  - Sarjana Muda Pengurusan Pelancongan dengan Kepujian,1,Expenses,Perkhidmatan dan Bekalan,Alat-alat Ganti
,0110000,110000,PENGAJIAN DALAM TALIAN  -UMUM,1,Expenses,Perkhidmatan dan Bekalan,Alat-alat Ganti
,0111000,111000,DIPLOMA PASCA SISWAZAH  -UMUM,1,Expenses,Perkhidmatan dan Bekalan,Alat-alat Ganti
,0111001,111001,DIPLOMA PASCA SISWAZAH  - Diploma Siswazah Sains Koreksional,1,Expenses,Perkhidmatan dan Bekalan,Alat-alat Ganti
,0111002,111002,DIPLOMA PASCA SISWAZAH  - Diploma Siswazah dalam Pendidikan,1,Expenses,Perkhidmatan dan Bekalan,Alat-alat Ganti
,0111003,111003,DIPLOMA PASCA SISWAZAH  - Diploma Pendidikan,1,Expenses,Perkhidmatan dan Bekalan,Alat-alat Ganti
,0111004,111004,DIPLOMA PASCA SISWAZAH  - Diploma Pascasiswazah Pendidikan,1,Expenses,Perkhidmatan dan Bekalan,Alat-alat Ganti
,0111005,111005,DIPLOMA PASCA SISWAZAH  - Diploma Pascasiswazah Pembelajaran dan Pengajaran Pendidikan Tinggi,1,Expenses,Perkhidmatan dan Bekalan,Alat-alat Ganti
,0111006,111006,DIPLOMA PASCA SISWAZAH Komunikasi,1,Expenses,Perkhidmatan dan Bekalan,Alat-alat Ganti
,,,,1,Expenses,Perkhidmatan dan Bekalan,Alat-alat Ganti
,,,,1,Expenses,Perkhidmatan dan Bekalan,Alat-alat Ganti
,,,,1,Expenses,Perkhidmatan dan Bekalan,Alat-alat Ganti
,,,,1,Expenses,Perkhidmatan dan Bekalan,Alat-alat Ganti
,,,,1,Expenses,Perkhidmatan dan Bekalan,Alat-alat Ganti
,,,,1,Expenses,Perkhidmatan dan Bekalan,Alat-alat Ganti
,,,,1,Expenses,Perkhidmatan dan Bekalan,Alat-alat Ganti
,,,,1,Expenses,Perkhidmatan dan Bekalan,Alat-alat Ganti
,,,,1,Expenses,Perkhidmatan dan Bekalan,Alat-alat Ganti
,,,,1,Expenses,Perkhidmatan dan Bekalan,Alat-alat Ganti
,,,,1,Expenses,Perkhidmatan dan Bekalan,Alat-alat Ganti
,,,,1,Expenses,Perkhidmatan dan Bekalan,Alat-alat Ganti
,,,,1,Expenses,Perkhidmatan dan Bekalan,Alat-alat Ganti
,,,,1,Expenses,Perkhidmatan dan Bekalan,Alat-alat Ganti
,,,,1,Expenses,Perkhidmatan dan Bekalan,Alat-alat Ganti
,,,,1,Expenses,Perkhidmatan dan Bekalan,Alat-alat Ganti
,,,,1,Expenses,Perkhidmatan dan Bekalan,Alat-alat Ganti
,,,,1,Expenses,Perkhidmatan dan Bekalan,Alat-alat Ganti
,,,,1,Expenses,Perkhidmatan dan Bekalan,Alat-alat Ganti
,,,,1,Expenses,Perkhidmatan dan Bekalan,Alat-alat Ganti
,,,,1,Expenses,Perkhidmatan dan Bekalan,Alat-alat Ganti
,,,,1,Expenses,Perkhidmatan dan Bekalan,Alat-alat Ganti
,,,,1,Expenses,Perkhidmatan dan Bekalan,Alat-alat Ganti
,,,,1,Expenses,Perkhidmatan dan Bekalan,Alat-alat Ganti
,,,,1,Expenses,Perkhidmatan dan Bekalan,Alat-alat Ganti
,,,,1,Expenses,Perkhidmatan dan Bekalan,Alat-alat Ganti
,,,,1,Expenses,Perkhidmatan dan Bekalan,Alat-alat Ganti
,,,,1,Expenses,Perkhidmatan dan Bekalan,Alat-alat Ganti
,,,,1,Expenses,Perkhidmatan dan Bekalan,Alat-alat Ganti
,,,,1,Expenses,Perkhidmatan dan Bekalan,Alat-alat Ganti
,,,,,,,
,,,,1,Expenses,Perkhidmatan dan Bekalan,Baja
,,,,1,Expenses,Perkhidmatan dan Bekalan,Baja
,,,,1,Expenses,Perkhidmatan dan Bekalan,Baja
,,,,1,Expenses,Perkhidmatan dan Bekalan,Baja
,,,,1,Expenses,Perkhidmatan dan Bekalan,Baja
,,,,1,Expenses,Perkhidmatan dan Bekalan,Baja
,,,,1,Expenses,Perkhidmatan dan Bekalan,Baja
,,,,1,Expenses,Perkhidmatan dan Bekalan,Baja
,,,,1,Expenses,Perkhidmatan dan Bekalan,Baja
,,,,1,Expenses,Perkhidmatan dan Bekalan,Baja
,,,,1,Expenses,Perkhidmatan dan Bekalan,Baja
,,,,1,Expenses,Perkhidmatan dan Bekalan,Baja
,,,,1,Expenses,Perkhidmatan dan Bekalan,Baja
,,,,1,Expenses,Perkhidmatan dan Bekalan,Baja
,,,,1,Expenses,Perkhidmatan dan Bekalan,Baja
,,,,1,Expenses,Perkhidmatan dan Bekalan,Baja
,,,,1,Expenses,Perkhidmatan dan Bekalan,Baja
,,,,1,Expenses,Perkhidmatan dan Bekalan,Baja
,,,,1,Expenses,Perkhidmatan dan Bekalan,Baja
,,,,1,Expenses,Perkhidmatan dan Bekalan,Baja
,,,,1,Expenses,Perkhidmatan dan Bekalan,Baja
,,,,1,Expenses,Perkhidmatan dan Bekalan,Baja
,,,,1,Expenses,Perkhidmatan dan Bekalan,Baja
,,,,1,Expenses,Perkhidmatan dan Bekalan,Baja
,,,,1,Expenses,Perkhidmatan dan Bekalan,Baja
,,,,1,Expenses,Perkhidmatan dan Bekalan,Baja
,,,,1,Expenses,Perkhidmatan dan Bekalan,Baja
,,,,1,Expenses,Perkhidmatan dan Bekalan,Baja
,,,,1,Expenses,Perkhidmatan dan Bekalan,Baja
,,,,1,Expenses,Perkhidmatan dan Bekalan,Baja
,,,,1,Expenses,Perkhidmatan dan Bekalan,Baja
,,,,,,,Baja
,,,,,,,Baja
,,,,,,,Baja
,,,,1,Expenses,Perkhidmatan dan Bekalan,Baja
,,,,1,Expenses,Perkhidmatan dan Bekalan,Baja
,,,,1,Expenses,Perkhidmatan dan Bekalan,Baja
,,,,1,Expenses,Perkhidmatan dan Bekalan,Baja
,,,,1,Expenses,Perkhidmatan dan Bekalan,Baja
,,,,1,Expenses,Perkhidmatan dan Bekalan,Baja
,,,,1,Expenses,Perkhidmatan dan Bekalan,Baja
,,,,1,Expenses,Perkhidmatan dan Bekalan,Baja
,,,,1,Expenses,Perkhidmatan dan Bekalan,Baja
,,,,1,Expenses,Perkhidmatan dan Bekalan,Baja
,,,,1,Expenses,Perkhidmatan dan Bekalan,Baja
,,,,1,Expenses,Perkhidmatan dan Bekalan,Baja
,,,,1,Expenses,Perkhidmatan dan Bekalan,Baja
,,,,1,Expenses,Perkhidmatan dan Bekalan,Baja
,,,,1,Expenses,Perkhidmatan dan Bekalan,Baja
,,,,1,Expenses,Perkhidmatan dan Bekalan,Baja
,,,,1,Expenses,Perkhidmatan dan Bekalan,Baja
,,,,1,Expenses,Perkhidmatan dan Bekalan,Baja
,,,,1,Expenses,Perkhidmatan dan Bekalan,Baja
,,,,1,Expenses,Perkhidmatan dan Bekalan,Baja
,,,,1,Expenses,Perkhidmatan dan Bekalan,Baja
,,,,1,Expenses,Perkhidmatan dan Bekalan,Baja
,,,,1,Expenses,Perkhidmatan dan Bekalan,Baja
,,,,1,Expenses,Perkhidmatan dan Bekalan,Baja
,,,,1,Expenses,Perkhidmatan dan Bekalan,Baja
,,,,1,Expenses,Perkhidmatan dan Bekalan,Baja
,,,,1,Expenses,Perkhidmatan dan Bekalan,Baja
,,,,1,Expenses,Perkhidmatan dan Bekalan,Baja
,,,,1,Expenses,Perkhidmatan dan Bekalan,Baja
,,,,1,Expenses,Perkhidmatan dan Bekalan,Baja
,,,,1,Expenses,Perkhidmatan dan Bekalan,Baja
,,,,1,Expenses,Perkhidmatan dan Bekalan,Baja
,,,,1,Expenses,Perkhidmatan dan Bekalan,Baja
,,,,1,Expenses,Perkhidmatan dan Bekalan,Baja
,,,,1,Expenses,Perkhidmatan dan Bekalan,Baja
,,,,1,Expenses,Perkhidmatan dan Bekalan,Baja
,,,,,,,
,,,,1,Expenses,Perkhidmatan dan Bekalan,Baja
,,,,1,Expenses,Perkhidmatan dan Bekalan,Baja
,,,,1,Expenses,Perkhidmatan dan Bekalan,Baja
,,,,1,Expenses,Perkhidmatan dan Bekalan,Baja
,,,,1,Expenses,Perkhidmatan dan Bekalan,Baja
,,,,1,Expenses,Perkhidmatan dan Bekalan,Baja
,,,,1,Expenses,Perkhidmatan dan Bekalan,Baja
,,,,1,Expenses,Perkhidmatan dan Bekalan,Baja
,,,,1,Expenses,Perkhidmatan dan Bekalan,Baja
,,,,1,Expenses,Perkhidmatan dan Bekalan,Baja
,,,,1,Expenses,Perkhidmatan dan Bekalan,Baja
,,,,1,Expenses,Perkhidmatan dan Bekalan,Baja
,,,,1,Expenses,Perkhidmatan dan Bekalan,Baja
,,,,1,Expenses,Perkhidmatan dan Bekalan,Baja
,,,,,,,
,,,,1,Expenses,Perkhidmatan dan Bekalan,Baja
,,,,1,Expenses,Perkhidmatan dan Bekalan,Baja
,,,,1,Expenses,Perkhidmatan dan Bekalan,Baja
,,,,1,Expenses,Perkhidmatan dan Bekalan,Baja
,,,,1,Expenses,Perkhidmatan dan Bekalan,Baja
,,,,1,Expenses,Perkhidmatan dan Bekalan,Baja
,,,,1,Expenses,Perkhidmatan dan Bekalan,Baja
,,,,1,Expenses,Perkhidmatan dan Bekalan,Baja
,,,,1,Expenses,Perkhidmatan dan Bekalan,Baja
,,,,1,Expenses,Perkhidmatan dan Bekalan,Baja
,,,,1,Expenses,Perkhidmatan dan Bekalan,Baja
,,,,1,Expenses,Perkhidmatan dan Bekalan,Baja
,,,,1,Expenses,Perkhidmatan dan Bekalan,Baja
,,,,1,Expenses,Perkhidmatan dan Bekalan,Baja
,,,,1,Expenses,Perkhidmatan dan Bekalan,Baja
,,,,1,Expenses,Perkhidmatan dan Bekalan,Baja
,,,,1,Expenses,Perkhidmatan dan Bekalan,Baja
,,,,1,Expenses,Perkhidmatan dan Bekalan,Baja
,,,,1,Expenses,Perkhidmatan dan Bekalan,Baja
,,,,1,Expenses,Perkhidmatan dan Bekalan,Baja
,,,,1,Expenses,Perkhidmatan dan Bekalan,Baja
,,,,,,,
,,,,,,,
,,,,2,Asset,Non-Current Asset,PPE/IP
,,,,2,Asset,Non-Current Asset,PPE/IP
,,,,2,Asset,Non-Current Asset,PPE/IP
,,,,2,Asset,Non-Current Asset,PPE/IP
,,,,2,Asset,Non-Current Asset,PPE/IP
,,,,2,Asset,Non-Current Asset,PPE/IP
,,,,2,Asset,Non-Current Asset,PPE/IP
,,,,2,Asset,Non-Current Asset,PPE/IP
,,,,2,Asset,Non-Current Asset,PPE/IP
,,,,,,,
,,,,2,Asset,Non-Current Asset,PPE/IP
,,,,2,Asset,Non-Current Asset,PPE/IP
,,,,2,Asset,Non-Current Asset,PPE/IP
,,,,2,Asset,Non-Current Asset,PPE/IP
,,,,2,Asset,Non-Current Asset,PPE/IP
,,,,2,Asset,Non-Current Asset,PPE/IP
,,,,2,Asset,Non-Current Asset,PPE/IP
,,,,2,Asset,Non-Current Asset,PPE/IP
,,,,2,Asset,Non-Current Asset,PPE/IP
,,,,2,Asset,Non-Current Asset,PPE/IP
,,,,2,Asset,Non-Current Asset,PPE/IP
,,,,2,Asset,Non-Current Asset,PPE/IP
,,,,2,Asset,Non-Current Asset,PPE/IP
,,,,2,Asset,Non-Current Asset,PPE/IP
,,,,2,Asset,Non-Current Asset,PPE/IP
,,,,2,Asset,Non-Current Asset,PPE/IP
,,,,2,Asset,Non-Current Asset,PPE/IP
,,,,2,Asset,Non-Current Asset,PPE/IP
,,,,2,Asset,Non-Current Asset,PPE/IP
,,,,2,Asset,Non-Current Asset,PPE/IP
,,,,2,Asset,Non-Current Asset,PPE/IP
,,,,2,Asset,Non-Current Asset,PPE/IP
,,,,2,Asset,Non-Current Asset,PPE/IP
,,,,,,,
,,,,2,Asset,Non-Current Asset,PPE/IP
,,,,2,Asset,Non-Current Asset,PPE/IP
,,,,2,Asset,Non-Current Asset,PPE/IP
,,,,2,Asset,Non-Current Asset,PPE/IP
,,,,2,Asset,Non-Current Asset,PPE/IP
,,,,2,Asset,Non-Current Asset,PPE/IP
,,,,2,Asset,Non-Current Asset,PPE/IP
,,,,2,Asset,Non-Current Asset,PPE/IP
,,,,2,Asset,Non-Current Asset,PPE/IP
,,,,2,Asset,Non-Current Asset,PPE/IP
,,,,2,Asset,Non-Current Asset,PPE/IP
,,,,2,Asset,Non-Current Asset,PPE/IP
,,,,2,Asset,Non-Current Asset,PPE/IP
,,,,2,Asset,Non-Current Asset,PPE/IP
,,,,2,Asset,Non-Current Asset,PPE/IP
,,,,2,Asset,Non-Current Asset,PPE/IP
,,,,2,Asset,Non-Current Asset,PPE/IP
,,,,2,Asset,Non-Current Asset,PPE/IP
,,,,2,Asset,Non-Current Asset,PPE/IP
,,,,2,Asset,Non-Current Asset,PPE/IP
,,,,2,Asset,Non-Current Asset,PPE/IP
,,,,2,Asset,Non-Current Asset,PPE/IP
,,,,2,Asset,Non-Current Asset,PPE/IP
,,,,2,Asset,Non-Current Asset,PPE/IP
,,,,2,Asset,Non-Current Asset,PPE/IP
,,,,2,Asset,Non-Current Asset,PPE/IP
,,,,2,Asset,Non-Current Asset,PPE/IP
,,,,,,,
,,,,2,Asset,Non-Current Asset,PPE/IP
,,,,2,Asset,Non-Current Asset,PPE/IP
,,,,2,Asset,Non-Current Asset,PPE/IP
,,,,2,Asset,Non-Current Asset,PPE/IP
,,,,2,Asset,Non-Current Asset,PPE/IP
,,,,2,Asset,Non-Current Asset,PPE/IP
,,,,2,Asset,Non-Current Asset,PPE/IP
,,,,2,Asset,Non-Current Asset,PPE/IP
,,,,2,Asset,Non-Current Asset,PPE/IP
,,,,2,Asset,Non-Current Asset,PPE/IP
,,,,2,Asset,Non-Current Asset,PPE/IP
,,,,2,Asset,Non-Current Asset,PPE/IP
,,,,2,Asset,Non-Current Asset,PPE/IP
,,,,2,Asset,Non-Current Asset,PPE/IP
,,,,2,Asset,Non-Current Asset,PPE/IP
,,,,2,Asset,Non-Current Asset,PPE/IP
,,,,2,Asset,Non-Current Asset,PPE/IP
,,,,2,Asset,Non-Current Asset,PPE/IP
,,,,2,Asset,Non-Current Asset,PPE/IP
,,,,2,Asset,Non-Current Asset,PPE/IP
,,,,2,Asset,Non-Current Asset,PPE/IP
,,,,2,Asset,Non-Current Asset,PPE/IP
,,,,2,Asset,Non-Current Asset,PPE/IP
,,,,2,Asset,Non-Current Asset,PPE/IP
,,,,2,Asset,Non-Current Asset,PPE/IP
,,,,2,Asset,Non-Current Asset,PPE/IP
,,,,2,Asset,Non-Current Asset,PPE/IP
,,,,2,Asset,Non-Current Asset,PPE/IP
,,,,2,Asset,Non-Current Asset,PPE/IP
,,,,,,,
,,,,2,Asset,Non-Current Asset,PPE/IP
,,,,2,Asset,Non-Current Asset,PPE/IP
,,,,2,Asset,Non-Current Asset,PPE/IP
,,,,2,Asset,Non-Current Asset,PPE/IP
,,,,2,Asset,Non-Current Asset,PPE/IP
,,,,2,Asset,Non-Current Asset,PPE/IP
,,,,2,Asset,Non-Current Asset,PPE/IP
,,,,2,Asset,Non-Current Asset,PPE/IP
,,,,2,Asset,Non-Current Asset,PPE/IP
,,,,2,Asset,Non-Current Asset,PPE/IP
,,,,2,Asset,Non-Current Asset,PPE/IP
,,,,2,Asset,Non-Current Asset,PPE/IP
,,,,2,Asset,Non-Current Asset,PPE/IP
,,,,2,Asset,Non-Current Asset,PPE/IP
,,,,2,Asset,Non-Current Asset,PPE/IP
,,,,2,Asset,Non-Current Asset,PPE/IP
,,,,2,Asset,Non-Current Asset,PPE/IP
,,,,2,Asset,Non-Current Asset,PPE/IP
,,,,2,Asset,Non-Current Asset,PPE/IP
,,,,2,Asset,Non-Current Asset,PPE/IP
,,,,2,Asset,Non-Current Asset,PPE/IP
,,,,2,Asset,Non-Current Asset,PPE/IP
,,,,2,Asset,Non-Current Asset,PPE/IP
,,,,2,Asset,Non-Current Asset,PPE/IP
,,,,2,Asset,Non-Current Asset,PPE/IP
,,,,2,Asset,Non-Current Asset,PPE/IP
,,,,2,Asset,Non-Current Asset,PPE/IP
,,,,2,Asset,Non-Current Asset,PPE/IP
,,,,2,Asset,Non-Current Asset,PPE/IP
,,,,2,Asset,Non-Current Asset,PPE/IP
,,,,2,Asset,Non-Current Asset,PPE/IP
,,,,2,Asset,Non-Current Asset,PPE/IP
,,,,2,Asset,Non-Current Asset,PPE/IP
,,,,2,Asset,Non-Current Asset,PPE/IP
,,,,2,Asset,Non-Current Asset,PPE/IP
,,,,2,Asset,Non-Current Asset,PPE/IP
,,,,2,Asset,Non-Current Asset,PPE/IP
,,,,2,Asset,Non-Current Asset,PPE/IP
,,,,2,Asset,Non-Current Asset,PPE/IP
,,,,2,Asset,Non-Current Asset,PPE/IP
,,,,2,Asset,Non-Current Asset,PPE/IP
,,,,2,Asset,Non-Current Asset,PPE/IP
,,,,2,Asset,Non-Current Asset,PPE/IP
,,,,2,Asset,Non-Current Asset,PPE/IP
,,,,2,Asset,Non-Current Asset,PPE/IP
,,,,,,,
,,,,2,Asset,Non-Current Asset,PPE/IP
,,,,2,Asset,Non-Current Asset,PPE/IP
,,,,2,Asset,Non-Current Asset,PPE/IP
,,,,2,Asset,Non-Current Asset,PPE/IP
,,,,2,Asset,Non-Current Asset,PPE/IP
,,,,2,Asset,Non-Current Asset,PPE/IP
,,,,2,Asset,Non-Current Asset,PPE/IP
,,,,,,,
,,,,2,Asset,Non-Current Asset,Pelaburan Jangka Panjang
,,,,2,Asset,Non-Current Asset,Pelaburan Jangka Panjang
,,,,2,Asset,Non-Current Asset,Pelaburan Jangka Panjang
,,,,2,Asset,Non-Current Asset,Pelaburan Jangka Panjang
,,,,2,Asset,Non-Current Asset,Pelaburan Jangka Panjang
,,,,2,Asset,Non-Current Asset,Pelaburan Jangka Panjang
,,,,2,Asset,Non-Current Asset,Pelaburan Jangka Panjang
,,,,2,Asset,Non-Current Asset,Pelaburan Jangka Panjang
,,,,2,Asset,Non-Current Asset,Pelaburan Jangka Panjang
,,,,,,,
,,,,2,Asset,Non-Current Asset,WIP
,,,,2,Asset,Non-Current Asset,WIP
,,,,2,Asset,Non-Current Asset,WIP
,,,,2,Asset,Non-Current Asset,WIP
,,,,2,Asset,Non-Current Asset,WIP
,,,,1,expenses,Pemberian dan Kenaan Tetap,"Biasiswa, Dermasiswa, dan Bantuan Pelajaran"
,,,,1,expenses,Pemberian dan Kenaan Tetap,"Biasiswa, Dermasiswa, dan Bantuan Pelajaran"
,,,,1,expenses,Pemberian dan Kenaan Tetap,"Biasiswa, Dermasiswa, dan Bantuan Pelajaran"
,,,,1,expenses,Pemberian dan Kenaan Tetap,"Biasiswa, Dermasiswa, dan Bantuan Pelajaran"
,,,,1,expenses,Pemberian dan Kenaan Tetap,"Biasiswa, Dermasiswa, dan Bantuan Pelajaran"
,,,,1,expenses,Pemberian dan Kenaan Tetap,"Biasiswa, Dermasiswa, dan Bantuan Pelajaran"
,,,,1,expenses,Pemberian dan Kenaan Tetap,"Biasiswa, Dermasiswa, dan Bantuan Pelajaran"
,,,,1,expenses,Pemberian dan Kenaan Tetap,"Biasiswa, Dermasiswa, dan Bantuan Pelajaran"
,,,,1,expenses,Pemberian dan Kenaan Tetap,"Biasiswa, Dermasiswa, dan Bantuan Pelajaran"
,,,,1,expenses,Pemberian dan Kenaan Tetap,"Biasiswa, Dermasiswa, dan Bantuan Pelajaran"
,,,,1,expenses,Pemberian dan Kenaan Tetap,"Biasiswa, Dermasiswa, dan Bantuan Pelajaran"
,,,,1,expenses,Pemberian dan Kenaan Tetap,"Biasiswa, Dermasiswa, dan Bantuan Pelajaran"
,,,,1,expenses,Pemberian dan Kenaan Tetap,"Biasiswa, Dermasiswa, dan Bantuan Pelajaran"
,,,,1,expenses,Pemberian dan Kenaan Tetap,"Biasiswa, Dermasiswa, dan Bantuan Pelajaran"
,,,,1,expenses,Pemberian dan Kenaan Tetap,"Biasiswa, Dermasiswa, dan Bantuan Pelajaran"
,,,,1,expenses,Pemberian dan Kenaan Tetap,"Biasiswa, Dermasiswa, dan Bantuan Pelajaran"
,,,,1,expenses,Pemberian dan Kenaan Tetap,"Biasiswa, Dermasiswa, dan Bantuan Pelajaran"
,,,,1,expenses,Pemberian dan Kenaan Tetap,"Biasiswa, Dermasiswa, dan Bantuan Pelajaran"
,,,,1,expenses,Pemberian dan Kenaan Tetap,"Biasiswa, Dermasiswa, dan Bantuan Pelajaran"
,,,,1,expenses,Pemberian dan Kenaan Tetap,"Biasiswa, Dermasiswa, dan Bantuan Pelajaran"
,,,,1,expenses,Pemberian dan Kenaan Tetap,"Biasiswa, Dermasiswa, dan Bantuan Pelajaran"
,,,,1,expenses,Pemberian dan Kenaan Tetap,"Biasiswa, Dermasiswa, dan Bantuan Pelajaran"
,,,,1,expenses,Pemberian dan Kenaan Tetap,"Biasiswa, Dermasiswa, dan Bantuan Pelajaran"
,,,,1,expenses,Pemberian dan Kenaan Tetap,"Biasiswa, Dermasiswa, dan Bantuan Pelajaran"
,,,,1,expenses,Pemberian dan Kenaan Tetap,"Biasiswa, Dermasiswa, dan Bantuan Pelajaran"
,,,,1,expenses,Pemberian dan Kenaan Tetap,"Biasiswa, Dermasiswa, dan Bantuan Pelajaran"
,,,,1,expenses,Pemberian dan Kenaan Tetap,"Biasiswa, Dermasiswa, dan Bantuan Pelajaran"
,,,,1,expenses,Pemberian dan Kenaan Tetap,"Biasiswa, Dermasiswa, dan Bantuan Pelajaran"
,,,,,,,
,,,,1,expenses,Pemberian dan Kenaan Tetap,Elaun Tetap Yang Lain
,,,,1,expenses,Pemberian dan Kenaan Tetap,Elaun Tetap Yang Lain
,,,,1,expenses,Pemberian dan Kenaan Tetap,Elaun Tetap Yang Lain
,,,,1,expenses,Pemberian dan Kenaan Tetap,Elaun Tetap Yang Lain
,,,,1,expenses,Pemberian dan Kenaan Tetap,Elaun Tetap Yang Lain
,,,,1,expenses,Pemberian dan Kenaan Tetap,Elaun Tetap Yang Lain
,,,,1,expenses,Pemberian dan Kenaan Tetap,Elaun Tetap Yang Lain
,,,,1,expenses,Pemberian dan Kenaan Tetap,Elaun Tetap Yang Lain
,,,,1,expenses,Pemberian dan Kenaan Tetap,Elaun Tetap Yang Lain
,,,,1,expenses,Pemberian dan Kenaan Tetap,Elaun Tetap Yang Lain
,,,,1,expenses,Pemberian dan Kenaan Tetap,Elaun Tetap Yang Lain
,,,,1,expenses,Pemberian dan Kenaan Tetap,Elaun Tetap Yang Lain
,,,,1,expenses,Pemberian dan Kenaan Tetap,Elaun Tetap Yang Lain
,,,,1,expenses,Pemberian dan Kenaan Tetap,Elaun Tetap Yang Lain
,,,,,,,
,,,,1,expenses,Pemberian dan Kenaan Tetap,Elaun Khidmat Awam
,,,,1,expenses,Pemberian dan Kenaan Tetap,Elaun Khidmat Awam
,,,,1,expenses,Pemberian dan Kenaan Tetap,Elaun Khidmat Awam
,,,,,,,
,,,,1,expenses,Pemberian dan Kenaan Tetap,Imbuhan Tetap Jawatan Utama & Gred Khas
,,,,1,expenses,Pemberian dan Kenaan Tetap,Imbuhan Tetap Jawatan Utama & Gred Khas
,,,,1,expenses,Pemberian dan Kenaan Tetap,Imbuhan Tetap Jawatan Utama & Gred Khas
,,,,1,expenses,Pemberian dan Kenaan Tetap,Imbuhan Tetap Jawatan Utama & Gred Khas
,,,,1,expenses,Pemberian dan Kenaan Tetap,Imbuhan Tetap Jawatan Utama & Gred Khas
,,,,1,expenses,Pemberian dan Kenaan Tetap,Imbuhan Tetap Jawatan Utama & Gred Khas
,,,,1,expenses,Pemberian dan Kenaan Tetap,Imbuhan Tetap Jawatan Utama & Gred Khas
,,,,,,,
,,,,1,expenses,Pemberian dan Kenaan Tetap,Insentif Wilayah
,,,,1,expenses,Pemberian dan Kenaan Tetap,Insentif Wilayah
,,,,,,,
,,,,1,expenses,Pemberian dan Kenaan Tetap,Elaun Tetap Yang Lain
,,,,1,expenses,Pemberian dan Kenaan Tetap,Elaun Tetap Yang Lain
,,,,1,Expenses,Bayaran Lain,Bayaran Lain
,,,,1,Expenses,Bayaran Lain,Bayaran Lain
,,,,1,Expenses,Bayaran Lain,Bayaran Lain
,,,,1,Expenses,Bayaran Lain,Bayaran Lain
,,,,1,Expenses,Bayaran Lain,Bayaran Lain
,,,,1,Expenses,Bayaran Lain,Bayaran Lain
,,,,1,Expenses,Bayaran Lain,Bayaran Lain
,,,,1,Expenses,Bayaran Lain,Bayaran Lain
,,,,1,Expenses,Bayaran Lain,Bayaran Lain
,,,,1,Expenses,Bayaran Lain,Bayaran Lain
,,,,1,Expenses,Bayaran Lain,Bayaran Lain
,,,,1,Expenses,Bayaran Lain,Bayaran Lain
,,,,1,Expenses,Bayaran Lain,Bayaran Lain
,,,,,,,
,,,,1,Expenses,Bayaran Lain,Bayaran Lain
,,,,1,Expenses,Bayaran Lain,Bayaran Lain
,,,,1,Expenses,Bayaran Lain,Bayaran Lain
,,,,1,Expenses,Bayaran Lain,Bayaran Lain
,,,,1,Expenses,Bayaran Lain,Bayaran Lain
,,,,,,,
,,,,1,Expenses,Bayaran Lain,Bayaran Lain
,,,,1,Expenses,Bayaran Lain,Bayaran Lain
,,,,1,Expenses,Bayaran Lain,Bayaran Lain
,,,,1,Expenses,Bayaran Lain,Bayaran Lain
,,,,1,Expenses,Bayaran Lain,Bayaran Lain
,,,,1,Expenses,Bayaran Lain,Bayaran Lain
,,,,1,Expenses,Bayaran Lain,Bayaran Lain
,,,,1,Expenses,Bayaran Lain,Bayaran Lain
,,,,1,Expenses,Bayaran Lain,Bayaran Lain
,,,,1,Expenses,Bayaran Lain,Bayaran Lain
,,,,1,Expenses,Bayaran Lain,Bayaran Lain
,,,,1,Expenses,Bayaran Lain,Bayaran Lain
,,,,1,Expenses,Bayaran Lain,Bayaran Lain
,,,,1,Expenses,Bayaran Lain,Bayaran Lain
,,,,1,Expenses,Bayaran Lain,Bayaran Lain
,,,,1,Expenses,Bayaran Lain,Bayaran Lain
,,,,1,Expenses,Bayaran Lain,Bayaran Lain
,,,,1,Expenses,Bayaran Lain,Bayaran Lain
,,,,1,Expenses,Bayaran Lain,Bayaran Lain
,,,,1,Expenses,Bayaran Lain,Bayaran Lain
,,,,1,Expenses,Bayaran Lain,Bayaran Lain
,,,,1,Expenses,Bayaran Lain,Bayaran Lain
,,,,1,Expenses,Bayaran Lain,Bayaran Lain
,,,,1,Expenses,Bayaran Lain,Bayaran Lain
,,,,1,Expenses,Bayaran Lain,Bayaran Lain
,,,,1,Expenses,Bayaran Lain,Bayaran Lain
,,,,1,Expenses,Bayaran Lain,Bayaran Lain
,,,,1,Expenses,Bayaran Lain,Bayaran Lain
,,,,1,Expenses,Bayaran Lain,Bayaran Lain
,,,,1,Expenses,Bayaran Lain,Bayaran Lain
,,,,1,Expenses,Bayaran Lain,Bayaran Lain
,,,,1,Profit and Loss,Income,
,,,,1,Profit and Loss,Income,PEMBERIAN
,,,,1,Profit and Loss,Income,PEMBERIAN
,,,,1,Profit and Loss,Income,PEMBERIAN
,,,,1,Profit and Loss,Income,PEMBERIAN
,,,,1,Profit and Loss,Income,PEMBERIAN
,,,,1,Profit and Loss,Income,PEMBERIAN
,,,,1,Profit and Loss,Income,PEMBERIAN
,,,,1,Profit and Loss,Income,PEMBERIAN
,,,,1,Income,PEMBERIAN,PEMBERIAN
,,,,1,Income,PEMBERIAN,PEMBERIAN
,,,,1,Profit and Loss,Income,PEMBERIAN
,,,,1,Profit and Loss,Income,PEMBERIAN
,,,,1,Profit and Loss,Income,PEMBERIAN
,,,,1,Profit and Loss,Income,PEMBERIAN
,,,,1,Profit and Loss,Income,PEMBERIAN
,,,,,,,
,,,,1,Profit and Loss,Income,HASIL DARI PELAJAR
,,,,1,Profit and Loss,Income,HASIL DARI PELAJAR
,,,,1,Profit and Loss,Income,HASIL DARI PELAJAR
,,,,1,Profit and Loss,Income,HASIL DARI PELAJAR
,,,,1,Profit and Loss,Income,HASIL DARI PELAJAR
,,,,1,Profit and Loss,Income,HASIL DARI PELAJAR
,,,,1,Profit and Loss,Income,HASIL DARI PELAJAR
,,,,1,Profit and Loss,Income,HASIL DARI PELAJAR
,,,,1,Profit and Loss,Income,HASIL DARI PELAJAR
,,,,1,Profit and Loss,Income,HASIL DARI PELAJAR
,,,,1,Profit and Loss,Income,HASIL DARI PELAJAR
,,,,1,Profit and Loss,Income,HASIL DARI PELAJAR
,,,,1,Profit and Loss,Income,HASIL DARI PELAJAR
,,,,1,Profit and Loss,Income,HASIL DARI PELAJAR
,,,,1,Profit and Loss,Income,HASIL DARI PELAJAR
,,,,1,Profit and Loss,Income,HASIL DARI PELAJAR
,,,,1,Profit and Loss,Income,HASIL DARI PELAJAR
,,,,1,Profit and Loss,Income,HASIL DARI PELAJAR
,,,,1,Profit and Loss,Income,HASIL DARI PELAJAR
,,,,1,Profit and Loss,Income,HASIL DARI PELAJAR
,,,,1,Profit and Loss,Income,HASIL DARI PELAJAR
,,,,1,Profit and Loss,Income,HASIL DARI PELAJAR
,,,,1,Profit and Loss,Income,HASIL DARI PELAJAR
,,,,1,Profit and Loss,Income,HASIL DARI PELAJAR
,,,,1,Profit and Loss,Income,HASIL DARI PELAJAR
,,,,,,,
,,,,1,Profit and Loss,Income,HASIL DARI PELAJAR
,,,,,,,
,,,,1,Profit and Loss,Income,HASIL DARI PELAJAR
,,,,1,Profit and Loss,Income,HASIL DARI PELAJAR
,,,,1,Profit and Loss,Income,HASIL DARI PELAJAR
,,,,1,Profit and Loss,Income,HASIL DARI PELAJAR
,,,,1,Profit and Loss,Income,HASIL DARI PELAJAR
,,,,1,Profit and Loss,Income,HASIL DARI PELAJAR
,,,,1,Profit and Loss,Income,HASIL DARI PELAJAR
,,,,1,Profit and Loss,Income,HASIL DARI PELAJAR
,,,,1,Profit and Loss,Income,HASIL DARI PELAJAR
,,,,1,Profit and Loss,Income,HASIL DARI PELAJAR
,,,,1,Profit and Loss,Income,HASIL DARI PELAJAR
,,,,1,Profit and Loss,Income,HASIL DARI PELAJAR
,,,,1,Profit and Loss,Income,HASIL DARI PELAJAR
,,,,1,Profit and Loss,Income,HASIL DARI PELAJAR
,,,,1,Profit and Loss,Income,HASIL DARI PELAJAR
,,,,1,Profit and Loss,Income,HASIL DARI PELAJAR
,,,,1,Profit and Loss,Income,HASIL DARI PELAJAR
,,,,1,Profit and Loss,Income,HASIL DARI PELAJAR
,,,,1,Profit and Loss,Income,HASIL DARI PELAJAR
,,,,1,Profit and Loss,Income,HASIL DARI PELAJAR
,,,,1,Profit and Loss,Income,HASIL DARI PELAJAR
,,,,1,Profit and Loss,Income,HASIL DARI PELAJAR
,,,,1,Profit and Loss,Income,HASIL DARI PELAJAR
,,,,,,,
,,,,1,Profit and Loss,Income,HASIL DARI PELAJAR
,,,,,,,
,,,,1,Profit and Loss,Income,FAEDAH PELABURAN & LAIN FAEDAH
,,,,1,Profit and Loss,Income,FAEDAH PELABURAN & LAIN FAEDAH
,,,,1,Profit and Loss,Income,FAEDAH PELABURAN & LAIN FAEDAH
,,,,1,Profit and Loss,Income,FAEDAH PELABURAN & LAIN FAEDAH
,,,,1,Profit and Loss,Income,FAEDAH PELABURAN & LAIN FAEDAH
,,,,1,Profit and Loss,Income,FAEDAH PELABURAN & LAIN FAEDAH
,,,,1,Profit and Loss,Income,FAEDAH PELABURAN & LAIN FAEDAH
,,,,1,Profit and Loss,Income,FAEDAH PELABURAN & LAIN FAEDAH
,,,,1,Profit and Loss,Income,FAEDAH PELABURAN & LAIN FAEDAH
,,,,1,Profit and Loss,Income,FAEDAH PELABURAN & LAIN FAEDAH
,,,,1,Profit and Loss,Income,FAEDAH PELABURAN & LAIN FAEDAH
,,,,,,,
,,,,1,Profit and Loss,Income,SEWA DAN PAJAKAN
,,,,1,Profit and Loss,Income,SEWA DAN PAJAKAN
,,,,1,Profit and Loss,Income,SEWA DAN PAJAKAN
,,,,1,Profit and Loss,Income,SEWA DAN PAJAKAN
,,,,1,Profit and Loss,Income,SEWA DAN PAJAKAN
,,,,1,Profit and Loss,Income,SEWA DAN PAJAKAN
,,,,1,Profit and Loss,Income,SEWA DAN PAJAKAN
,,,,1,Profit and Loss,Income,SEWA DAN PAJAKAN
,,,,1,Profit and Loss,Income,SEWA DAN PAJAKAN
,,,,1,Profit and Loss,Income,SEWA DAN PAJAKAN
,,,,1,Profit and Loss,Income,SEWA DAN PAJAKAN
,,,,1,Profit and Loss,Income,SEWA DAN PAJAKAN
,,,,1,Profit and Loss,Income,SEWA DAN PAJAKAN
,,,,1,Profit and Loss,Income,SEWA DAN PAJAKAN
,,,,,,,
,,,,1,Profit and Loss,Income,JUALAN
,,,,,,,
,,,,1,Profit and Loss,Income,JUALAN
,,,,1,Profit and Loss,Income,JUALAN
,,,,1,Profit and Loss,Income,JUALAN
,,,,1,Profit and Loss,Income,JUALAN
,,,,1,Profit and Loss,Income,JUALAN
,,,,1,Profit and Loss,Income,JUALAN
,,,,1,Profit and Loss,Income,JUALAN
,,,,1,Profit and Loss,Income,JUALAN
,,,,1,Profit and Loss,Income,JUALAN
,,,,1,Profit and Loss,Income,JUALAN
,,,,1,Profit and Loss,Income,JUALAN
,,,,1,Profit and Loss,Income,JUALAN
,,,,1,Profit and Loss,Income,JUALAN
,,,,,,,
,,,,1,Profit and Loss,Income,TERIMAAN PENYELIDIKAN 
,,,,1,Profit and Loss,Income,TERIMAAN PENYELIDIKAN 
,,,,1,Profit and Loss,Income,TERIMAAN PENYELIDIKAN 
,,,,1,Profit and Loss,Income,TERIMAAN PENYELIDIKAN 
,,,,1,Profit and Loss,Income,TERIMAAN PENYELIDIKAN 
,,,,,,,
,,,,1,Profit and Loss,Income,SEMINAR/ LATIHAN
,,,,1,Profit and Loss,Income,SEMINAR/ LATIHAN
,,,,1,Profit and Loss,Income,SEMINAR/ LATIHAN
,,,,1,Profit and Loss,Income,SEMINAR/ LATIHAN
,,,,,,,
,,,,1,Profit and Loss,Income,HASIL PERUBATAN
,,,,1,Profit and Loss,Income,HASIL PERUBATAN
,,,,1,Profit and Loss,Income,HASIL PERUBATAN
,,,,1,Profit and Loss,Income,HASIL PERUBATAN
,,,,1,Profit and Loss,Income,HASIL PERUBATAN
,,,,1,Profit and Loss,Income,HASIL PERUBATAN
,,,,1,Profit and Loss,Income,HASIL PERUBATAN
,,,,1,Profit and Loss,Income,HASIL PERUBATAN
,,,,1,Profit and Loss,Income,HASIL PERUBATAN
,,,,1,Profit and Loss,Income,HASIL PERUBATAN
,,,,1,Profit and Loss,Income,HASIL PERUBATAN
,,,,1,Profit and Loss,Income,HASIL PERUBATAN
,,,,,,,
,,,,1,Profit and Loss,Income,DENDA DAN HUKUMAN
,,,,1,Profit and Loss,Income,DENDA DAN HUKUMAN
,,,,1,Profit and Loss,Income,DENDA DAN HUKUMAN
,,,,1,Profit and Loss,Income,DENDA DAN HUKUMAN
,,,,1,Profit and Loss,Income,DENDA DAN HUKUMAN
,,,,1,Profit and Loss,Income,DENDA DAN HUKUMAN
,,,,,,,
,,,,1,Profit and Loss,Income,SUMBANGAN
,,,,1,Profit and Loss,Income,SUMBANGAN
,,,,1,Profit and Loss,Income,SUMBANGAN
,,,,1,Profit and Loss,Income,SUMBANGAN
,,,,1,Profit and Loss,Income,SUMBANGAN
,,,,,,,
,,,,1,Profit and Loss,Income,ROYALTI
,,,,1,Profit and Loss,Income,ROYALTI
,,,,1,Profit and Loss,Income,ROYALTI
,,,,,,,
,,,,1,Profit and Loss,Income,PELBAGAI HASIL
,,,,1,Profit and Loss,Income,PELBAGAI HASIL
,,,,1,Profit and Loss,Income,PELBAGAI HASIL
,,,,1,Profit and Loss,Income,PELBAGAI HASIL
,,,,1,Profit and Loss,Income,PELBAGAI HASIL
,,,,1,Profit and Loss,Income,PELBAGAI HASIL
,,,,1,Profit and Loss,Income,PELBAGAI HASIL
,,,,1,Profit and Loss,Income,PELBAGAI HASIL
,,,,1,Profit and Loss,Income,PELBAGAI HASIL
,,,,1,Profit and Loss,Income,PELBAGAI HASIL
,,,,1,Profit and Loss,Income,PELBAGAI HASIL
,,,,1,Profit and Loss,Income,PELBAGAI HASIL
,,,,1,Profit and Loss,Income,PELBAGAI HASIL
,,,,1,Profit and Loss,Income,PELBAGAI HASIL
,,,,1,Profit and Loss,Income,PELBAGAI HASIL
,,,,1,Profit and Loss,Income,PELBAGAI HASIL
,,,,1,Profit and Loss,Income,PELBAGAI HASIL
,,,,1,Profit and Loss,Income,PELBAGAI HASIL
,,,,,,,
,,,,1,Profit and Loss,Income,HASIL BUKAN TUNAI
,,,,1,Profit and Loss,Income,HASIL PELUNASAN GERAN
,,,,1,Profit and Loss,Income,HASIL PELUNASAN GERAN
,,,,1,Profit and Loss,Income,HASIL PELUNASAN GERAN
,,,,1,Profit and Loss,Income,DISKAUN/PENGECUALIAN 
,,,,1,Profit and Loss,Income,DISKAUN/PENGECUALIAN 
,,,,2,Asset,Non-Current Asset/Current Asset,PINJAMAN & PENDAHULUAN DIBERI
,,,,2,Asset,,PINJAMAN & PENDAHULUAN DIBERI
,,,,2,Asset,Non-Current Asset/Current Asset,PINJAMAN & PENDAHULUAN DIBERI
,,,,2,Asset,Non-Current Asset,PINJAMAN & PENDAHULUAN DIBERI
,,,,2,Asset,Non-Current Asset,PINJAMAN & PENDAHULUAN DIBERI
,,,,2,Asset,Non-Current Asset,PINJAMAN & PENDAHULUAN DIBERI
,,,,2,Asset,Current Asset,PINJAMAN & PENDAHULUAN DIBERI
,,,,2,Asset,Current Asset,PINJAMAN & PENDAHULUAN DIBERI
,,,,2,Asset,Current Asset,PINJAMAN & PENDAHULUAN DIBERI
,,,,2,Asset,Current Asset,PINJAMAN & PENDAHULUAN DIBERI
,,,,2,Asset,Current Asset,PINJAMAN & PENDAHULUAN DIBERI
,,,,2,Asset,Current Asset,PINJAMAN & PENDAHULUAN DIBERI
,,,,,,,
,,,,2,Asset,Current Asset,PINJAMAN & PENDAHULUAN DIBERI
,,,,2,Asset,Current Asset,PINJAMAN & PENDAHULUAN DIBERI
,,,,2,Asset,Current Asset,PINJAMAN & PENDAHULUAN DIBERI
,,,,2,Asset,Current Asset,PINJAMAN & PENDAHULUAN DIBERI
,,,,2,Asset,Current Asset,PINJAMAN & PENDAHULUAN DIBERI
,,,,2,Asset,Current Asset,PINJAMAN & PENDAHULUAN DIBERI
,,,,2,Asset,Current Asset,PINJAMAN & PENDAHULUAN DIBERI
,,,,2,Asset,Current Asset,PINJAMAN & PENDAHULUAN DIBERI
,,,,2,Asset,Current Asset,PINJAMAN & PENDAHULUAN DIBERI
,,,,2,Asset,Current Asset,PINJAMAN & PENDAHULUAN DIBERI
,,,,2,Asset,Current Asset,PINJAMAN & PENDAHULUAN DIBERI
,,,,2,Asset,Current Asset,PINJAMAN & PENDAHULUAN DIBERI
,,,,2,Asset,Current Asset,PINJAMAN & PENDAHULUAN DIBERI
,,,,2,Asset,Current Asset,PINJAMAN & PENDAHULUAN DIBERI
,,,,2,Asset,Current Asset,PINJAMAN & PENDAHULUAN DIBERI
,,,,2,Asset,Current Asset,PINJAMAN & PENDAHULUAN DIBERI
,,,,2,Asset,Current Asset,PINJAMAN & PENDAHULUAN DIBERI
,,,,2,Asset,Current Asset,PINJAMAN & PENDAHULUAN DIBERI
,,,,2,Asset,Current Asset,PINJAMAN & PENDAHULUAN DIBERI
,,,,,,,
,,,,2,Asset,Current Asset,PINJAMAN & PENDAHULUAN DIBERI
,,,,2,Asset,Current Asset,PINJAMAN & PENDAHULUAN DIBERI
,,,,2,Asset,Current Asset,PINJAMAN & PENDAHULUAN DIBERI
,,,,2,Asset,Current Asset,PINJAMAN & PENDAHULUAN DIBERI
,,,,2,Asset,Current Asset,PINJAMAN & PENDAHULUAN DIBERI
,,,,2,Asset,Current Asset,PINJAMAN & PENDAHULUAN DIBERI
,,,,2,Asset,Current Asset,PINJAMAN & PENDAHULUAN DIBERI
,,,,2,,,
,,,,2,Liability,Current Liability,Pemiutang
,,,,2,Liability,Current Liability,Pemiutang
,,,,2,Liability,Current Liability,Pemiutang
,,,,2,Liability,Current Liability,Pemiutang
,,,,2,Liability,Current Liability,Pemiutang
,,,,2,Liability,Current Liability,Pemiutang
,,,,2,Liability,Current Liability,Pemiutang
,,,,2,Liability,Current Liability,Pemiutang
,,,,2,Liability,Current Liability,Pemiutang
,,,,2,Liability,Current Liability,Pemiutang
,,,,2,Liability,Current Liability,Pemiutang
,,,,2,Liability,Current Liability,Pemiutang
,,,,,,,
,,,,2,Liability,Current Liability,Deposit/Cagaran Dipegang
,,,,2,Liability,Current Liability,Deposit/Cagaran Dipegang
,,,,2,Liability,Current Liability,Deposit/Cagaran Dipegang
,,,,2,Liability,Current Liability,Deposit/Cagaran Dipegang
,,,,2,Liability,Current Liability,Deposit/Cagaran Dipegang
,,,,2,Liability,Current Liability,Deposit/Cagaran Dipegang
,,,,2,Liability,Current Liability,Deposit/Cagaran Dipegang
,,,,,,,
,,,,2,Liability,Current Liability,Deposit/Cagaran Dipegang
,,,,2,Liability,Current Liability,Deposit/Cagaran Dipegang
,,,,,,,
,,,,2,Liability,Non-Current Liability,Geran Tertunda
,,,,2,Liability,Non-Current Liability,Geran Tertunda
,,,,2,Liability,Non-Current Liability,Geran Tertunda
,,,,,,,
,,,,2,Liability,Non-Current Liability,Pelbagai Pelarasan
,,,,2,Liability,Non-Current Liability,Pelbagai Pelarasan
,,,,2,Liability,Non-Current Liability,Pelbagai Pelarasan
,,,,2,Liability,Non-Current Liability,Pelbagai Pelarasan
,,,,2,Liability,Non-Current Liability,Pelbagai Pelarasan
,,,,2,Liability,Non-Current Liability,Pelbagai Pelarasan
,,,,2,Liability,Non-Current Liability,Pelbagai Pelarasan
,,,,2,Liability,Current Liability,Pelbagai Pelarasan
,,,,2,Liability,Current Liability,Pelbagai Pelarasan
,,,,2,Liability,Current Liability,Pelbagai Pelarasan
,,,,2,Liability,Current Liability,Pelbagai Pelarasan
,,,,2,Liability,Current Liability,Pelbagai Pelarasan
,,,,2,Liability,Current Liability,Pelbagai Pelarasan
,,,,2,Liability,Current Liability,Pelbagai Pelarasan
,,,,2,Liability,Current Liability,Pelbagai Pelarasan
,,,,,,,
,,,,2,Equity,Equity,EKUITI KUMPULAN WANG
,,,,2,Equity,Equity,KW MENGURUS
,,,,2,Equity,Equity,KW PENYELIDIKAN
,,,,2,Equity,Equity,KW AMANAH
,,,,2,Equity,Equity,KW PENDAPATAN
,,,,2,Equity,Equity,KW PINJAMAN
,,,,2,Equity,Equity,KW BANK
,,,,2,Equity,Equity,KW PROJEK
,,,,2,Equity,Equity,KW PEMBANGUNAN
,,,,,,,
,,,,2,Asset,Current Asset,WANG TUNAI DI BANK DAN DALAM TANGAN
,,,,2,Asset,Current Asset,WANG TUNAI DI BANK DAN DALAM TANGAN
,,,,2,Asset,Current Asset,WANG TUNAI DI BANK DAN DALAM TANGAN
,,,,2,Asset,Current Asset,WANG TUNAI DI BANK DAN DALAM TANGAN
,,,,2,Asset,Current Asset,WANG TUNAI DI BANK DAN DALAM TANGAN
,,,,2,Asset,Current Asset,WANG TUNAI DI BANK DAN DALAM TANGAN
,,,,2,Asset,Current Asset,WANG TUNAI DI BANK DAN DALAM TANGAN
,,,,2,Asset,Current Asset,WANG TUNAI DI BANK DAN DALAM TANGAN
,,,,2,Asset,Current Asset,WANG TUNAI DI BANK DAN DALAM TANGAN
,,,,2,Asset,Current Asset,WANG TUNAI DI BANK DAN DALAM TANGAN
,,,,,,,
,,,,2,Asset,Current Asset,PELABURAN JANGKA PENDEK
,,,,2,Asset,Current Asset,PELABURAN JANGKA PENDEK
,,,,2,Asset,Current Asset,PELABURAN JANGKA PENDEK
,,,,2,Asset,Current Asset,PELABURAN JANGKA PENDEK
,,,,2,Asset,Current Asset,PELABURAN JANGKA PENDEK
,,,,2,Asset,Current Asset,PELABURAN JANGKA PENDEK
,,,,2,Asset,Current Asset,PELABURAN JANGKA PENDEK
,,,,2,Asset,Current Asset,PELABURAN JANGKA PENDEK
,,,,2,Asset,Current Asset,PELABURAN JANGKA PENDEK
,,,,2,Asset,Current Asset,PELABURAN JANGKA PENDEK
,,,,2,Asset,Current Asset,PELABURAN JANGKA PENDEK
,,,,2,Asset,Current Asset,PELABURAN JANGKA PENDEK
,,,,,,,
,,,,2,Asset,Current Asset,HASIL BELUM TERIMA
,,,,2,Asset,Current Asset,HASIL BELUM TERIMA
,,,,2,Asset,Current Asset,HASIL BELUM TERIMA
,,,,2,Asset,Current Asset,HASIL BELUM TERIMA
,,,,2,Asset,Current Asset,HASIL BELUM TERIMA
,,,,2,Asset,Current Asset,HASIL BELUM TERIMA
,,,,2,Asset,Current Asset,HASIL BELUM TERIMA
,,,,2,Asset,Current Asset,HASIL BELUM TERIMA
,,,,2,Asset,Current Asset,HASIL BELUM TERIMA
,,,,2,Asset,Current Asset,HASIL BELUM TERIMA
,,,,2,Asset,Current Asset,HASIL BELUM TERIMA
,,,,2,Asset,Current Asset,HASIL BELUM TERIMA
,,,,2,Asset,Current Asset,HASIL BELUM TERIMA
,,,,2,Asset,Current Asset,HASIL BELUM TERIMA
,,,,2,Asset,Current Asset,HASIL BELUM TERIMA
,,,,2,Asset,Current Asset,HASIL BELUM TERIMA
,,,,2,Asset,Current Asset,HASIL BELUM TERIMA
,,,,2,Asset,Current Asset,HASIL BELUM TERIMA
,,,,2,Asset,Current Asset,HASIL BELUM TERIMA
,,,,2,Asset,Current Asset,HASIL BELUM TERIMA
,,,,2,Asset,Current Asset,HASIL BELUM TERIMA
,,,,2,Asset,Current Asset,HASIL BELUM TERIMA
,,,,2,Asset,Current Asset,HASIL BELUM TERIMA
,,,,2,Asset,Current Asset,HASIL BELUM TERIMA
,,,,2,Asset,Current Asset,HASIL BELUM TERIMA
,,,,2,Asset,Current Asset,HASIL BELUM TERIMA
,,,,2,Asset,Current Asset,HASIL BELUM TERIMA
,,,,2,Asset,Current Asset,HASIL BELUM TERIMA
,,,,2,Asset,Current Asset,HASIL BELUM TERIMA
,,,,2,Asset,Current Asset,HASIL BELUM TERIMA
,,,,2,Asset,Current Asset,HASIL BELUM TERIMA
,,,,2,Asset,Current Asset,HASIL BELUM TERIMA
,,,,2,Asset,Current Asset,HASIL BELUM TERIMA
,,,,2,Asset,Current Asset,HASIL BELUM TERIMA
,,,,2,Asset,Current Asset,HASIL BELUM TERIMA
,,,,2,Asset,Current Asset,HASIL BELUM TERIMA
,,,,2,Asset,Current Asset,HASIL BELUM TERIMA
,,,,2,Asset,Current Asset,HASIL BELUM TERIMA
,,,,2,Asset,Current Asset,HASIL BELUM TERIMA
,,,,2,Asset,Current Asset,HASIL BELUM TERIMA
,,,,2,Asset,Current Asset,HASIL BELUM TERIMA
